Verilog/ALU_out.vcd
$date
	Tue Oct 31 11:48:17 2023
$end
$version
	Icarus Verilog
$end
$timescale
	1s
$end
$scope module and_4bit_tb $end
$scope module ALU_tb $end
$var wire 1 ! A0 $end
$var wire 1 " A1 $end
$var wire 1 # A2 $end
$var wire 1 $ A3 $end
$var wire 1 % B0 $end
$var wire 1 & B1 $end
$var wire 1 ' B2 $end
$var wire 1 ( B3 $end
$var wire 1 ) OCe $end
$var wire 1 * S0 $end
$var wire 1 + S1 $end
$var wire 1 , das $end
$var wire 1 - un_e $end
$var wire 1 . inc7 $end
$var wire 1 / inc6 $end
$var wire 1 0 inc5 $end
$var wire 1 1 inc4 $end
$var wire 1 2 inc3 $end
$var wire 1 3 inc2 $end
$var wire 1 4 inc1 $end
$var wire 1 5 inc0 $end
$var wire 1 6 inas7 $end
$var wire 1 7 inas6 $end
$var wire 1 8 inas5 $end
$var wire 1 9 inas4 $end
$var wire 1 : inas3 $end
$var wire 1 ; inas2 $end
$var wire 1 < inas1 $end
$var wire 1 = inas0 $end
$var wire 1 > ina7 $end
$var wire 1 ? ina6 $end
$var wire 1 @ ina5 $end
$var wire 1 A ina4 $end
$var wire 1 B ina3 $end
$var wire 1 C ina2 $end
$var wire 1 D ina1 $end
$var wire 1 E ina0 $end
$var wire 1 F OCl $end
$var wire 1 G OCg $end
$var wire 1 H OASC $end
$var wire 1 I OAS3 $end
$var wire 1 J OAS2 $end
$var wire 1 K OAS1 $end
$var wire 1 L OAS0 $end
$var wire 1 M OA3 $end
$var wire 1 N OA2 $end
$var wire 1 O OA1 $end
$var wire 1 P OA0 $end
$var wire 1 Q D3 $end
$var wire 1 R D2 $end
$var wire 1 S D1 $end
$var wire 1 T D0 $end
$scope module A $end
$var wire 1 P out0 $end
$var wire 1 O out1 $end
$var wire 1 N out2 $end
$var wire 1 M out3 $end
$var wire 1 > B3 $end
$var wire 1 ? B2 $end
$var wire 1 @ B1 $end
$var wire 1 A B0 $end
$var wire 1 B A3 $end
$var wire 1 C A2 $end
$var wire 1 D A1 $end
$var wire 1 E A0 $end
$upscope $end
$scope module AS $end
$var wire 1 U m0 $end
$var wire 1 V m1 $end
$var wire 1 W m2 $end
$var wire 1 X m3 $end
$var wire 1 I out3 $end
$var wire 1 J out2 $end
$var wire 1 K out1 $end
$var wire 1 L out0 $end
$var wire 1 H carry $end
$var wire 1 Y c2 $end
$var wire 1 Z c1 $end
$var wire 1 [ c0 $end
$var wire 1 S M $end
$var wire 1 6 B3 $end
$var wire 1 7 B2 $end
$var wire 1 8 B1 $end
$var wire 1 9 B0 $end
$var wire 1 : A3 $end
$var wire 1 ; A2 $end
$var wire 1 < A1 $end
$var wire 1 = A0 $end
$scope module FA1 $end
$var wire 1 U b $end
$var wire 1 \ c1 $end
$var wire 1 ] c2 $end
$var wire 1 [ cout $end
$var wire 1 ^ s1 $end
$var wire 1 L sout $end
$var wire 1 S cin $end
$var wire 1 = a $end
$upscope $end
$scope module FA2 $end
$var wire 1 V b $end
$var wire 1 _ c1 $end
$var wire 1 ` c2 $end
$var wire 1 [ cin $end
$var wire 1 Z cout $end
$var wire 1 a s1 $end
$var wire 1 K sout $end
$var wire 1 < a $end
$upscope $end
$scope module FA3 $end
$var wire 1 W b $end
$var wire 1 b c1 $end
$var wire 1 c c2 $end
$var wire 1 Z cin $end
$var wire 1 Y cout $end
$var wire 1 d s1 $end
$var wire 1 J sout $end
$var wire 1 ; a $end
$upscope $end
$scope module FA4 $end
$var wire 1 X b $end
$var wire 1 e c1 $end
$var wire 1 f c2 $end
$var wire 1 Y cin $end
$var wire 1 H cout $end
$var wire 1 g s1 $end
$var wire 1 I sout $end
$var wire 1 : a $end
$upscope $end
$upscope $end
$scope module C $end
$var wire 1 h an0 $end
$var wire 1 i an1 $end
$var wire 1 j an2 $end
$var wire 1 k an3 $end
$var wire 1 l b0 $end
$var wire 1 m b1 $end
$var wire 1 n b2 $end
$var wire 1 o b3 $end
$var wire 1 - e $end
$var wire 1 G g $end
$var wire 1 F l $end
$var wire 1 p xn0 $end
$var wire 1 q xn1 $end
$var wire 1 r xn2 $end
$var wire 1 s xn3 $end
$var wire 1 . B3 $end
$var wire 1 / B2 $end
$var wire 1 0 B1 $end
$var wire 1 1 B0 $end
$var wire 1 2 A3 $end
$var wire 1 3 A2 $end
$var wire 1 4 A1 $end
$var wire 1 5 A0 $end
$upscope $end
$scope module E1 $end
$var wire 1 ! A0 $end
$var wire 1 " A1 $end
$var wire 1 # A2 $end
$var wire 1 $ A3 $end
$var wire 1 % B0 $end
$var wire 1 & B1 $end
$var wire 1 ' B2 $end
$var wire 1 ( B3 $end
$var wire 1 , D $end
$var wire 1 = in0 $end
$var wire 1 < in1 $end
$var wire 1 ; in2 $end
$var wire 1 : in3 $end
$var wire 1 9 in4 $end
$var wire 1 8 in5 $end
$var wire 1 7 in6 $end
$var wire 1 6 in7 $end
$upscope $end
$scope module E2 $end
$var wire 1 ! A0 $end
$var wire 1 " A1 $end
$var wire 1 # A2 $end
$var wire 1 $ A3 $end
$var wire 1 % B0 $end
$var wire 1 & B1 $end
$var wire 1 ' B2 $end
$var wire 1 ( B3 $end
$var wire 1 5 in0 $end
$var wire 1 4 in1 $end
$var wire 1 3 in2 $end
$var wire 1 2 in3 $end
$var wire 1 1 in4 $end
$var wire 1 0 in5 $end
$var wire 1 / in6 $end
$var wire 1 . in7 $end
$var wire 1 R D $end
$upscope $end
$scope module E3 $end
$var wire 1 ! A0 $end
$var wire 1 " A1 $end
$var wire 1 # A2 $end
$var wire 1 $ A3 $end
$var wire 1 % B0 $end
$var wire 1 & B1 $end
$var wire 1 ' B2 $end
$var wire 1 ( B3 $end
$var wire 1 E in0 $end
$var wire 1 D in1 $end
$var wire 1 C in2 $end
$var wire 1 B in3 $end
$var wire 1 A in4 $end
$var wire 1 @ in5 $end
$var wire 1 ? in6 $end
$var wire 1 > in7 $end
$var wire 1 Q D $end
$upscope $end
$scope module d1 $end
$var wire 1 T D0 $end
$var wire 1 S D1 $end
$var wire 1 R D2 $end
$var wire 1 Q D3 $end
$var wire 1 * S0 $end
$var wire 1 + S1 $end
$var wire 1 t s0 $end
$var wire 1 u s1 $end
$upscope $end
$upscope $end
$upscope $end
$enddefinitions $end
#0
$dumpvars
xu
xt
xs
xr
xq
xp
xo
xn
xm
xl
xk
xj
xi
xh
xg
xf
xe
xd
xc
xb
xa
x`
x_
x^
x]
x\
x[
xZ
xY
xX
xW
xV
xU
xT
xS
xR
xQ
xP
xO
xN
xM
xL
xK
xJ
xI
xH
xG
xF
xE
xD
xC
xB
xA
x@
x?
x>
x=
x<
x;
x:
x9
x8
x7
x6
x5
x4
x3
x2
x1
x0
x/
x.
x-
x,
x+
x*
x)
x(
x'
x&
x%
x$
x#
x"
x!
$end
#2
0I
0J
0Y
0H
0Z
0L
0c
0f
0K
0`
0G
0F
0^
0a
0d
0g
0[
1k
1-
0]
1,
1T
0)
0U
1l
0V
1m
0W
1n
0X
1o
0\
1p
0P
0_
1j
1q
0O
0b
1i
1r
0N
0e
1h
1s
0M
1t
0S
1u
0Q
0R
09
01
0A
08
00
0@
07
0/
0?
06
0.
0>
0=
05
0E
0<
04
0D
0;
03
0C
0:
02
0B
0*
0+
0%
0&
0'
0(
0!
0"
0#
0$
#4
1L
1^
1U
19
1%
#6
0L
1K
0^
1a
0U
1V
09
18
0%
1&
#8
1L
1^
1U
19
1%
#10
0L
0K
1J
0^
0a
1d
0U
0V
1W
09
08
17
0%
0&
1'
#12
1L
1^
1U
19
1%
#14
0L
1K
0^
1a
0U
1V
09
18
0%
1&
#16
1L
1^
1U
19
1%
#18
0L
0K
0J
1I
0^
0a
0d
1g
0U
0V
0W
1X
09
08
07
16
0%
0&
0'
1(
#20
1L
1^
1U
19
1%
#22
0L
1K
0^
1a
0U
1V
09
18
0%
1&
#24
1L
1^
1U
19
1%
#26
0L
0K
1J
0^
0a
1d
0U
0V
1W
09
08
17
0%
0&
1'
#28
1L
1^
1U
19
1%
#30
0L
1K
0^
1a
0U
1V
09
18
0%
1&
#32
1L
1^
1U
19
1%
#34
0K
0J
0I
0a
0d
0g
0[
1L
0U
0V
0W
0X
0\
1^
09
08
07
06
1=
0%
0&
0'
0(
1!
#36
1K
0L
1[
0^
1\
1U
19
1%
#38
0J
0Z
1L
0[
1K
0`
1^
0\
1a
0U
1V
09
18
0%
1&
#40
1J
1Z
0K
1`
0L
1[
0^
1\
1U
19
1%
#42
0I
0Z
0Y
1L
0[
0K
0`
1J
0c
1^
0\
0a
1d
0U
0V
1W
09
08
17
0%
0&
1'
#44
1K
0L
1[
0^
1\
1U
19
1%
#46
0I
0Y
1J
0c
0Z
1L
0[
1K
0`
1^
0\
1a
0U
1V
09
18
0%
1&
#48
1I
1Y
0J
1c
1Z
0K
1`
0L
1[
0^
1\
1U
19
1%
#50
0Z
0Y
0H
1L
0[
0K
0`
0J
0c
1I
0f
1^
0\
0a
0d
1g
0U
0V
0W
1X
09
08
07
16
0%
0&
0'
1(
#52
1K
0L
1[
0^
1\
1U
19
1%
#54
0J
0Z
1L
0[
1K
0`
1^
0\
1a
0U
1V
09
18
0%
1&
#56
1J
1Z
0K
1`
0L
1[
0^
1\
1U
19
1%
#58
0H
1I
0f
0Z
0Y
1L
0[
0K
0`
1J
0c
1^
0\
0a
1d
0U
0V
1W
09
08
17
0%
0&
1'
#60
1K
0L
1[
0^
1\
1U
19
1%
#62
0H
1I
0f
0Y
1J
0c
0Z
1L
0[
1K
0`
1^
0\
1a
0U
1V
09
18
0%
1&
#64
1H
0I
1f
1Y
0J
1c
1Z
0K
1`
0L
1[
0^
1\
1U
19
1%
#66
0Y
0H
0Z
0J
0c
0I
0f
0d
0g
0[
0L
1K
0`
0U
0V
0W
0X
0\
0^
0_
1a
09
08
07
06
0=
1<
0%
0&
0'
0(
0!
1"
#68
1L
1^
1U
19
1%
#70
1J
0L
0K
1Z
0^
0a
1_
0U
1V
09
18
0%
1&
#72
1L
1^
1U
19
1%
#74
0I
0Y
0L
1K
0Z
1J
0c
0^
1a
0_
1d
0U
0V
1W
09
08
17
0%
0&
1'
#76
1L
1^
1U
19
1%
#78
1I
1Y
0J
1c
0L
0K
1Z
0^
0a
1_
0U
1V
09
18
0%
1&
#80
1L
1^
1U
19
1%
#82
0Y
0H
0L
1K
0Z
0J
0c
1I
0f
0^
1a
0_
0d
1g
0U
0V
0W
1X
09
08
07
16
0%
0&
0'
1(
#84
1L
1^
1U
19
1%
#86
1J
0L
0K
1Z
0^
0a
1_
0U
1V
09
18
0%
1&
#88
1L
1^
1U
19
1%
#90
0H
1I
0f
0Y
0L
1K
0Z
1J
0c
0^
1a
0_
1d
0U
0V
1W
09
08
17
0%
0&
1'
#92
1L
1^
1U
19
1%
#94
1H
0I
1f
1Y
0J
1c
0L
0K
1Z
0^
0a
1_
0U
1V
09
18
0%
1&
#96
1L
1^
1U
19
1%
#98
0Z
1K
0Y
0H
0J
0c
0I
0f
0`
1a
0_
0d
0g
0[
1L
0U
0V
0W
0X
0\
1^
09
08
07
06
1=
0%
0&
0'
0(
1!
#100
1J
1Z
0K
1`
0L
1[
0^
1\
1U
19
1%
#102
1L
0[
0K
0`
1^
0\
0a
1_
0U
1V
09
18
0%
1&
#104
1K
0L
1[
0^
1\
1U
19
1%
#106
0I
0Y
1L
0[
1K
0`
0Z
1J
0c
1^
0\
1a
0_
1d
0U
0V
1W
09
08
17
0%
0&
1'
#108
1I
1Y
0J
1c
1Z
0K
1`
0L
1[
0^
1\
1U
19
1%
#110
1L
0[
0K
0`
1^
0\
0a
1_
0U
1V
09
18
0%
1&
#112
1K
0L
1[
0^
1\
1U
19
1%
#114
0Y
0H
1L
0[
1K
0`
0Z
0J
0c
1I
0f
1^
0\
1a
0_
0d
1g
0U
0V
0W
1X
09
08
07
16
0%
0&
0'
1(
#116
1J
1Z
0K
1`
0L
1[
0^
1\
1U
19
1%
#118
1L
0[
0K
0`
1^
0\
0a
1_
0U
1V
09
18
0%
1&
#120
1K
0L
1[
0^
1\
1U
19
1%
#122
0H
1I
0f
0Y
1L
0[
1K
0`
0Z
1J
0c
1^
0\
1a
0_
1d
0U
0V
1W
09
08
17
0%
0&
1'
#124
1H
0I
1f
1Y
0J
1c
1Z
0K
1`
0L
1[
0^
1\
1U
19
1%
#126
1L
0[
0K
0`
1^
0\
0a
1_
0U
1V
09
18
0%
1&
#128
1K
0L
1[
0^
1\
1U
19
1%
#130
0H
0Z
0Y
0I
0f
0g
0[
0L
0K
0`
1J
0c
0U
0V
0W
0X
0\
0^
0_
0a
0b
1d
09
08
07
06
0=
0<
1;
0%
0&
0'
0(
0!
0"
1#
#132
1L
1^
1U
19
1%
#134
0L
1K
0^
1a
0U
1V
09
18
0%
1&
#136
1L
1^
1U
19
1%
#138
1I
0L
0K
0J
1Y
0^
0a
0d
1b
0U
0V
1W
09
08
17
0%
0&
1'
#140
1L
1^
1U
19
1%
#142
0L
1K
0^
1a
0U
1V
09
18
0%
1&
#144
1L
1^
1U
19
1%
#146
0H
0L
0K
1J
0Y
1I
0f
0^
0a
1d
0b
1g
0U
0V
0W
1X
09
08
07
16
0%
0&
0'
1(
#148
1L
1^
1U
19
1%
#150
0L
1K
0^
1a
0U
1V
09
18
0%
1&
#152
1L
1^
1U
19
1%
#154
1H
0I
1f
0L
0K
0J
1Y
0^
0a
0d
1b
0U
0V
1W
09
08
17
0%
0&
1'
#156
1L
1^
1U
19
1%
#158
0L
1K
0^
1a
0U
1V
09
18
0%
1&
#160
1L
1^
1U
19
1%
#162
0K
0H
1J
0Y
0I
0f
0a
1d
0b
0g
0[
1L
0U
0V
0W
0X
0\
1^
09
08
07
06
1=
0%
0&
0'
0(
1!
#164
1K
0L
1[
0^
1\
1U
19
1%
#166
0I
0Y
1J
0c
0Z
1L
0[
1K
0`
1^
0\
1a
0U
1V
09
18
0%
1&
#168
1I
1Y
0J
1c
1Z
0K
1`
0L
1[
0^
1\
1U
19
1%
#170
0Z
1L
0[
0K
0`
0J
0c
1^
0\
0a
0d
1b
0U
0V
1W
09
08
17
0%
0&
1'
#172
1K
0L
1[
0^
1\
1U
19
1%
#174
0J
0Z
1L
0[
1K
0`
1^
0\
1a
0U
1V
09
18
0%
1&
#176
1J
1Z
0K
1`
0L
1[
0^
1\
1U
19
1%
#178
0Z
0H
1L
0[
0K
0`
1J
0c
0Y
1I
0f
1^
0\
0a
1d
0b
1g
0U
0V
0W
1X
09
08
07
16
0%
0&
0'
1(
#180
1K
0L
1[
0^
1\
1U
19
1%
#182
0H
1I
0f
0Y
1J
0c
0Z
1L
0[
1K
0`
1^
0\
1a
0U
1V
09
18
0%
1&
#184
1H
0I
1f
1Y
0J
1c
1Z
0K
1`
0L
1[
0^
1\
1U
19
1%
#186
0Z
1L
0[
0K
0`
0J
0c
1^
0\
0a
0d
1b
0U
0V
1W
09
08
17
0%
0&
1'
#188
1K
0L
1[
0^
1\
1U
19
1%
#190
0J
0Z
1L
0[
1K
0`
1^
0\
1a
0U
1V
09
18
0%
1&
#192
1J
1Z
0K
1`
0L
1[
0^
1\
1U
19
1%
#194
0H
0Z
1J
0c
0Y
0I
0f
1d
0b
0g
0[
0L
1K
0`
0U
0V
0W
0X
0\
0^
0_
1a
09
08
07
06
0=
1<
0%
0&
0'
0(
0!
1"
#196
1L
1^
1U
19
1%
#198
1I
1Y
0J
1c
0L
0K
1Z
0^
0a
1_
0U
1V
09
18
0%
1&
#200
1L
1^
1U
19
1%
#202
0L
1K
0Z
0J
0c
0^
1a
0_
0d
1b
0U
0V
1W
09
08
17
0%
0&
1'
#204
1L
1^
1U
19
1%
#206
1J
0L
0K
1Z
0^
0a
1_
0U
1V
09
18
0%
1&
#208
1L
1^
1U
19
1%
#210
0H
0L
1K
0Z
1J
0c
0Y
1I
0f
0^
1a
0_
1d
0b
1g
0U
0V
0W
1X
09
08
07
16
0%
0&
0'
1(
#212
1L
1^
1U
19
1%
#214
1H
0I
1f
1Y
0J
1c
0L
0K
1Z
0^
0a
1_
0U
1V
09
18
0%
1&
#216
1L
1^
1U
19
1%
#218
0L
1K
0Z
0J
0c
0^
1a
0_
0d
1b
0U
0V
1W
09
08
17
0%
0&
1'
#220
1L
1^
1U
19
1%
#222
1J
0L
0K
1Z
0^
0a
1_
0U
1V
09
18
0%
1&
#224
1L
1^
1U
19
1%
#226
0Z
1K
0H
1J
0c
0Y
0I
0f
0`
1a
0_
1d
0b
0g
0[
1L
0U
0V
0W
0X
0\
1^
09
08
07
06
1=
0%
0&
0'
0(
1!
#228
1I
1Y
0J
1c
1Z
0K
1`
0L
1[
0^
1\
1U
19
1%
#230
1L
0[
0K
0`
1^
0\
0a
1_
0U
1V
09
18
0%
1&
#232
1K
0L
1[
0^
1\
1U
19
1%
#234
1L
0[
1K
0`
0Z
0J
0c
1^
0\
1a
0_
0d
1b
0U
0V
1W
09
08
17
0%
0&
1'
#236
1J
1Z
0K
1`
0L
1[
0^
1\
1U
19
1%
#238
1L
0[
0K
0`
1^
0\
0a
1_
0U
1V
09
18
0%
1&
#240
1K
0L
1[
0^
1\
1U
19
1%
#242
0H
1L
0[
1K
0`
0Z
1J
0c
0Y
1I
0f
1^
0\
1a
0_
1d
0b
1g
0U
0V
0W
1X
09
08
07
16
0%
0&
0'
1(
#244
1H
0I
1f
1Y
0J
1c
1Z
0K
1`
0L
1[
0^
1\
1U
19
1%
#246
1L
0[
0K
0`
1^
0\
0a
1_
0U
1V
09
18
0%
1&
#248
1K
0L
1[
0^
1\
1U
19
1%
#250
1L
0[
1K
0`
0Z
0J
0c
1^
0\
1a
0_
0d
1b
0U
0V
1W
09
08
17
0%
0&
1'
#252
1J
1Z
0K
1`
0L
1[
0^
1\
1U
19
1%
#254
1L
0[
0K
0`
1^
0\
0a
1_
0U
1V
09
18
0%
1&
#256
1K
0L
1[
0^
1\
1U
19
1%
#258
0Y
0Z
0H
0[
0L
0K
0`
0J
0c
1I
0f
0U
0V
0W
0X
0\
0^
0_
0a
0b
0d
0e
1g
09
08
07
06
0=
0<
0;
1:
0%
0&
0'
0(
0!
0"
0#
1$
#260
1L
1^
1U
19
1%
#262
0L
1K
0^
1a
0U
1V
09
18
0%
1&
#264
1L
1^
1U
19
1%
#266
0L
0K
1J
0^
0a
1d
0U
0V
1W
09
08
17
0%
0&
1'
#268
1L
1^
1U
19
1%
#270
0L
1K
0^
1a
0U
1V
09
18
0%
1&
#272
1L
1^
1U
19
1%
#274
0L
0K
0J
0I
1H
0^
0a
0d
0g
1e
0U
0V
0W
1X
09
08
07
16
0%
0&
0'
1(
#276
1L
1^
1U
19
1%
#278
0L
1K
0^
1a
0U
1V
09
18
0%
1&
#280
1L
1^
1U
19
1%
#282
0L
0K
1J
0^
0a
1d
0U
0V
1W
09
08
17
0%
0&
1'
#284
1L
1^
1U
19
1%
#286
0L
1K
0^
1a
0U
1V
09
18
0%
1&
#288
1L
1^
1U
19
1%
#290
0K
0J
1I
0H
0a
0d
1g
0e
0[
1L
0U
0V
0W
0X
0\
1^
09
08
07
06
1=
0%
0&
0'
0(
1!
#292
1K
0L
1[
0^
1\
1U
19
1%
#294
0J
0Z
1L
0[
1K
0`
1^
0\
1a
0U
1V
09
18
0%
1&
#296
1J
1Z
0K
1`
0L
1[
0^
1\
1U
19
1%
#298
0H
1I
0f
0Z
0Y
1L
0[
0K
0`
1J
0c
1^
0\
0a
1d
0U
0V
1W
09
08
17
0%
0&
1'
#300
1K
0L
1[
0^
1\
1U
19
1%
#302
0H
1I
0f
0Y
1J
0c
0Z
1L
0[
1K
0`
1^
0\
1a
0U
1V
09
18
0%
1&
#304
1H
0I
1f
1Y
0J
1c
1Z
0K
1`
0L
1[
0^
1\
1U
19
1%
#306
0Z
0Y
1L
0[
0K
0`
0J
0c
0I
0f
1^
0\
0a
0d
0g
1e
0U
0V
0W
1X
09
08
07
16
0%
0&
0'
1(
#308
1K
0L
1[
0^
1\
1U
19
1%
#310
0J
0Z
1L
0[
1K
0`
1^
0\
1a
0U
1V
09
18
0%
1&
#312
1J
1Z
0K
1`
0L
1[
0^
1\
1U
19
1%
#314
0I
0Z
0Y
1L
0[
0K
0`
1J
0c
1^
0\
0a
1d
0U
0V
1W
09
08
17
0%
0&
1'
#316
1K
0L
1[
0^
1\
1U
19
1%
#318
0I
0Y
1J
0c
0Z
1L
0[
1K
0`
1^
0\
1a
0U
1V
09
18
0%
1&
#320
1I
1Y
0J
1c
1Z
0K
1`
0L
1[
0^
1\
1U
19
1%
#322
0Y
0Z
0J
0c
1I
0f
0H
0d
1g
0e
0[
0L
1K
0`
0U
0V
0W
0X
0\
0^
0_
1a
09
08
07
06
0=
1<
0%
0&
0'
0(
0!
1"
#324
1L
1^
1U
19
1%
#326
1J
0L
0K
1Z
0^
0a
1_
0U
1V
09
18
0%
1&
#328
1L
1^
1U
19
1%
#330
0H
1I
0f
0Y
0L
1K
0Z
1J
0c
0^
1a
0_
1d
0U
0V
1W
09
08
17
0%
0&
1'
#332
1L
1^
1U
19
1%
#334
1H
0I
1f
1Y
0J
1c
0L
0K
1Z
0^
0a
1_
0U
1V
09
18
0%
1&
#336
1L
1^
1U
19
1%
#338
0Y
0L
1K
0Z
0J
0c
0I
0f
0^
1a
0_
0d
0g
1e
0U
0V
0W
1X
09
08
07
16
0%
0&
0'
1(
#340
1L
1^
1U
19
1%
#342
1J
0L
0K
1Z
0^
0a
1_
0U
1V
09
18
0%
1&
#344
1L
1^
1U
19
1%
#346
0I
0Y
0L
1K
0Z
1J
0c
0^
1a
0_
1d
0U
0V
1W
09
08
17
0%
0&
1'
#348
1L
1^
1U
19
1%
#350
1I
1Y
0J
1c
0L
0K
1Z
0^
0a
1_
0U
1V
09
18
0%
1&
#352
1L
1^
1U
19
1%
#354
0Z
1K
0Y
0J
0c
1I
0f
0H
0`
1a
0_
0d
1g
0e
0[
1L
0U
0V
0W
0X
0\
1^
09
08
07
06
1=
0%
0&
0'
0(
1!
#356
1J
1Z
0K
1`
0L
1[
0^
1\
1U
19
1%
#358
1L
0[
0K
0`
1^
0\
0a
1_
0U
1V
09
18
0%
1&
#360
1K
0L
1[
0^
1\
1U
19
1%
#362
0H
1I
0f
0Y
1L
0[
1K
0`
0Z
1J
0c
1^
0\
1a
0_
1d
0U
0V
1W
09
08
17
0%
0&
1'
#364
1H
0I
1f
1Y
0J
1c
1Z
0K
1`
0L
1[
0^
1\
1U
19
1%
#366
1L
0[
0K
0`
1^
0\
0a
1_
0U
1V
09
18
0%
1&
#368
1K
0L
1[
0^
1\
1U
19
1%
#370
0Y
1L
0[
1K
0`
0Z
0J
0c
0I
0f
1^
0\
1a
0_
0d
0g
1e
0U
0V
0W
1X
09
08
07
16
0%
0&
0'
1(
#372
1J
1Z
0K
1`
0L
1[
0^
1\
1U
19
1%
#374
1L
0[
0K
0`
1^
0\
0a
1_
0U
1V
09
18
0%
1&
#376
1K
0L
1[
0^
1\
1U
19
1%
#378
0I
0Y
1L
0[
1K
0`
0Z
1J
0c
1^
0\
1a
0_
1d
0U
0V
1W
09
08
17
0%
0&
1'
#380
1I
1Y
0J
1c
1Z
0K
1`
0L
1[
0^
1\
1U
19
1%
#382
1L
0[
0K
0`
1^
0\
0a
1_
0U
1V
09
18
0%
1&
#384
1K
0L
1[
0^
1\
1U
19
1%
#386
0Z
0Y
1I
0f
0H
1g
0e
0[
0L
0K
0`
1J
0c
0U
0V
0W
0X
0\
0^
0_
0a
0b
1d
09
08
07
06
0=
0<
1;
0%
0&
0'
0(
0!
0"
1#
#388
1L
1^
1U
19
1%
#390
0L
1K
0^
1a
0U
1V
09
18
0%
1&
#392
1L
1^
1U
19
1%
#394
1H
0I
1f
0L
0K
0J
1Y
0^
0a
0d
1b
0U
0V
1W
09
08
17
0%
0&
1'
#396
1L
1^
1U
19
1%
#398
0L
1K
0^
1a
0U
1V
09
18
0%
1&
#400
1L
1^
1U
19
1%
#402
0L
0K
1J
0Y
0I
0f
0^
0a
1d
0b
0g
1e
0U
0V
0W
1X
09
08
07
16
0%
0&
0'
1(
#404
1L
1^
1U
19
1%
#406
0L
1K
0^
1a
0U
1V
09
18
0%
1&
#408
1L
1^
1U
19
1%
#410
1I
0L
0K
0J
1Y
0^
0a
0d
1b
0U
0V
1W
09
08
17
0%
0&
1'
#412
1L
1^
1U
19
1%
#414
0L
1K
0^
1a
0U
1V
09
18
0%
1&
#416
1L
1^
1U
19
1%
#418
0K
1J
0Y
1I
0f
0H
0a
1d
0b
1g
0e
0[
1L
0U
0V
0W
0X
0\
1^
09
08
07
06
1=
0%
0&
0'
0(
1!
#420
1K
0L
1[
0^
1\
1U
19
1%
#422
0H
1I
0f
0Y
1J
0c
0Z
1L
0[
1K
0`
1^
0\
1a
0U
1V
09
18
0%
1&
#424
1H
0I
1f
1Y
0J
1c
1Z
0K
1`
0L
1[
0^
1\
1U
19
1%
#426
0Z
1L
0[
0K
0`
0J
0c
1^
0\
0a
0d
1b
0U
0V
1W
09
08
17
0%
0&
1'
#428
1K
0L
1[
0^
1\
1U
19
1%
#430
0J
0Z
1L
0[
1K
0`
1^
0\
1a
0U
1V
09
18
0%
1&
#432
1J
1Z
0K
1`
0L
1[
0^
1\
1U
19
1%
#434
0Z
1L
0[
0K
0`
1J
0c
0Y
0I
0f
1^
0\
0a
1d
0b
0g
1e
0U
0V
0W
1X
09
08
07
16
0%
0&
0'
1(
#436
1K
0L
1[
0^
1\
1U
19
1%
#438
0I
0Y
1J
0c
0Z
1L
0[
1K
0`
1^
0\
1a
0U
1V
09
18
0%
1&
#440
1I
1Y
0J
1c
1Z
0K
1`
0L
1[
0^
1\
1U
19
1%
#442
0Z
1L
0[
0K
0`
0J
0c
1^
0\
0a
0d
1b
0U
0V
1W
09
08
17
0%
0&
1'
#444
1K
0L
1[
0^
1\
1U
19
1%
#446
0J
0Z
1L
0[
1K
0`
1^
0\
1a
0U
1V
09
18
0%
1&
#448
1J
1Z
0K
1`
0L
1[
0^
1\
1U
19
1%
#450
0Z
1J
0c
0Y
1I
0f
0H
1d
0b
1g
0e
0[
0L
1K
0`
0U
0V
0W
0X
0\
0^
0_
1a
09
08
07
06
0=
1<
0%
0&
0'
0(
0!
1"
#452
1L
1^
1U
19
1%
#454
1H
0I
1f
1Y
0J
1c
0L
0K
1Z
0^
0a
1_
0U
1V
09
18
0%
1&
#456
1L
1^
1U
19
1%
#458
0L
1K
0Z
0J
0c
0^
1a
0_
0d
1b
0U
0V
1W
09
08
17
0%
0&
1'
#460
1L
1^
1U
19
1%
#462
1J
0L
0K
1Z
0^
0a
1_
0U
1V
09
18
0%
1&
#464
1L
1^
1U
19
1%
#466
0L
1K
0Z
1J
0c
0Y
0I
0f
0^
1a
0_
1d
0b
0g
1e
0U
0V
0W
1X
09
08
07
16
0%
0&
0'
1(
#468
1L
1^
1U
19
1%
#470
1I
1Y
0J
1c
0L
0K
1Z
0^
0a
1_
0U
1V
09
18
0%
1&
#472
1L
1^
1U
19
1%
#474
0L
1K
0Z
0J
0c
0^
1a
0_
0d
1b
0U
0V
1W
09
08
17
0%
0&
1'
#476
1L
1^
1U
19
1%
#478
1J
0L
0K
1Z
0^
0a
1_
0U
1V
09
18
0%
1&
#480
1L
1^
1U
19
1%
#482
0Z
1K
1J
0c
0Y
1I
0f
0H
0`
1a
0_
1d
0b
1g
0e
0[
1L
0U
0V
0W
0X
0\
1^
09
08
07
06
1=
0%
0&
0'
0(
1!
#484
1H
0I
1f
1Y
0J
1c
1Z
0K
1`
0L
1[
0^
1\
1U
19
1%
#486
1L
0[
0K
0`
1^
0\
0a
1_
0U
1V
09
18
0%
1&
#488
1K
0L
1[
0^
1\
1U
19
1%
#490
1L
0[
1K
0`
0Z
0J
0c
1^
0\
1a
0_
0d
1b
0U
0V
1W
09
08
17
0%
0&
1'
#492
1J
1Z
0K
1`
0L
1[
0^
1\
1U
19
1%
#494
1L
0[
0K
0`
1^
0\
0a
1_
0U
1V
09
18
0%
1&
#496
1K
0L
1[
0^
1\
1U
19
1%
#498
1L
0[
1K
0`
0Z
1J
0c
0Y
0I
0f
1^
0\
1a
0_
1d
0b
0g
1e
0U
0V
0W
1X
09
08
07
16
0%
0&
0'
1(
#500
1I
1Y
0J
1c
1Z
0K
1`
0L
1[
0^
1\
1U
19
1%
#502
1L
0[
0K
0`
1^
0\
0a
1_
0U
1V
09
18
0%
1&
#504
1K
0L
1[
0^
1\
1U
19
1%
#506
1L
0[
1K
0`
0Z
0J
0c
1^
0\
1a
0_
0d
1b
0U
0V
1W
09
08
17
0%
0&
1'
#508
1J
1Z
0K
1`
0L
1[
0^
1\
1U
19
1%
#510
1L
0[
0K
0`
1^
0\
0a
1_
0U
1V
09
18
0%
1&
#512
1K
0L
1[
0^
1\
1U
19
1%
#514
0K
1`
0J
1c
0I
1f
0T
1]
0\
1^
0_
1a
0b
1d
0e
1g
0t
1S
09
08
07
06
0=
0<
0;
0:
1*
0%
0&
0'
0(
0!
0"
0#
0$
#516
0H
1I
0f
0Y
1J
0c
0Z
1K
0`
0[
1L
0]
0^
0U
19
1%
#518
1[
0L
1]
1K
1^
0a
1U
0V
09
18
0%
1&
#520
0K
0[
1L
0]
0^
0U
19
1%
#522
1Z
1`
1[
0L
1]
0K
1J
1^
1a
0d
1U
1V
0W
09
08
17
0%
0&
1'
#524
0J
0Z
1K
0`
0[
1L
0]
0^
0U
19
1%
#526
1[
0L
1]
1K
1^
0a
1U
0V
09
18
0%
1&
#528
0K
0[
1L
0]
0^
0U
19
1%
#530
1Y
1c
1Z
1`
1[
0L
1]
0K
0J
1I
1^
1a
1d
0g
1U
1V
1W
0X
09
08
07
16
0%
0&
0'
1(
