Verilog/Verilog_OUTPUTS.txt
VCD info: dumpfile ALU_out.vcd opened for output.
at T=   0:A = xxxx, B = xxxx,S1 = x,S0 = x, Add_Sub = xxxxx, is A>B:x, is A=B:x, is A<B:x, AND = xxxx
at T=   2:A = 0000, B = 0000,S1 = 0,S0 = 0, Add_Sub = 00000, is A>B:0, is A=B:0, is A<B:0, AND = 0000
at T=   4:A = 0000, B = 0001,S1 = 0,S0 = 0, Add_Sub = 00001, is A>B:0, is A=B:0, is A<B:0, AND = 0000
at T=   6:A = 0000, B = 0010,S1 = 0,S0 = 0, Add_Sub = 00010, is A>B:0, is A=B:0, is A<B:0, AND = 0000
at T=   8:A = 0000, B = 0011,S1 = 0,S0 = 0, Add_Sub = 00011, is A>B:0, is A=B:0, is A<B:0, AND = 0000
at T=  10:A = 0000, B = 0100,S1 = 0,S0 = 0, Add_Sub = 00100, is A>B:0, is A=B:0, is A<B:0, AND = 0000
at T=  12:A = 0000, B = 0101,S1 = 0,S0 = 0, Add_Sub = 00101, is A>B:0, is A=B:0, is A<B:0, AND = 0000
at T=  14:A = 0000, B = 0110,S1 = 0,S0 = 0, Add_Sub = 00110, is A>B:0, is A=B:0, is A<B:0, AND = 0000
at T=  16:A = 0000, B = 0111,S1 = 0,S0 = 0, Add_Sub = 00111, is A>B:0, is A=B:0, is A<B:0, AND = 0000
at T=  18:A = 0000, B = 1000,S1 = 0,S0 = 0, Add_Sub = 01000, is A>B:0, is A=B:0, is A<B:0, AND = 0000
at T=  20:A = 0000, B = 1001,S1 = 0,S0 = 0, Add_Sub = 01001, is A>B:0, is A=B:0, is A<B:0, AND = 0000
at T=  22:A = 0000, B = 1010,S1 = 0,S0 = 0, Add_Sub = 01010, is A>B:0, is A=B:0, is A<B:0, AND = 0000
at T=  24:A = 0000, B = 1011,S1 = 0,S0 = 0, Add_Sub = 01011, is A>B:0, is A=B:0, is A<B:0, AND = 0000
at T=  26:A = 0000, B = 1100,S1 = 0,S0 = 0, Add_Sub = 01100, is A>B:0, is A=B:0, is A<B:0, AND = 0000
at T=  28:A = 0000, B = 1101,S1 = 0,S0 = 0, Add_Sub = 01101, is A>B:0, is A=B:0, is A<B:0, AND = 0000
at T=  30:A = 0000, B = 1110,S1 = 0,S0 = 0, Add_Sub = 01110, is A>B:0, is A=B:0, is A<B:0, AND = 0000
at T=  32:A = 0000, B = 1111,S1 = 0,S0 = 0, Add_Sub = 01111, is A>B:0, is A=B:0, is A<B:0, AND = 0000
at T=  34:A = 0001, B = 0000,S1 = 0,S0 = 0, Add_Sub = 00001, is A>B:0, is A=B:0, is A<B:0, AND = 0000
at T=  36:A = 0001, B = 0001,S1 = 0,S0 = 0, Add_Sub = 00010, is A>B:0, is A=B:0, is A<B:0, AND = 0000
at T=  38:A = 0001, B = 0010,S1 = 0,S0 = 0, Add_Sub = 00011, is A>B:0, is A=B:0, is A<B:0, AND = 0000
at T=  40:A = 0001, B = 0011,S1 = 0,S0 = 0, Add_Sub = 00100, is A>B:0, is A=B:0, is A<B:0, AND = 0000
at T=  42:A = 0001, B = 0100,S1 = 0,S0 = 0, Add_Sub = 00101, is A>B:0, is A=B:0, is A<B:0, AND = 0000
at T=  44:A = 0001, B = 0101,S1 = 0,S0 = 0, Add_Sub = 00110, is A>B:0, is A=B:0, is A<B:0, AND = 0000
at T=  46:A = 0001, B = 0110,S1 = 0,S0 = 0, Add_Sub = 00111, is A>B:0, is A=B:0, is A<B:0, AND = 0000
at T=  48:A = 0001, B = 0111,S1 = 0,S0 = 0, Add_Sub = 01000, is A>B:0, is A=B:0, is A<B:0, AND = 0000
at T=  50:A = 0001, B = 1000,S1 = 0,S0 = 0, Add_Sub = 01001, is A>B:0, is A=B:0, is A<B:0, AND = 0000
at T=  52:A = 0001, B = 1001,S1 = 0,S0 = 0, Add_Sub = 01010, is A>B:0, is A=B:0, is A<B:0, AND = 0000
at T=  54:A = 0001, B = 1010,S1 = 0,S0 = 0, Add_Sub = 01011, is A>B:0, is A=B:0, is A<B:0, AND = 0000
at T=  56:A = 0001, B = 1011,S1 = 0,S0 = 0, Add_Sub = 01100, is A>B:0, is A=B:0, is A<B:0, AND = 0000
at T=  58:A = 0001, B = 1100,S1 = 0,S0 = 0, Add_Sub = 01101, is A>B:0, is A=B:0, is A<B:0, AND = 0000
at T=  60:A = 0001, B = 1101,S1 = 0,S0 = 0, Add_Sub = 01110, is A>B:0, is A=B:0, is A<B:0, AND = 0000
at T=  62:A = 0001, B = 1110,S1 = 0,S0 = 0, Add_Sub = 01111, is A>B:0, is A=B:0, is A<B:0, AND = 0000
at T=  64:A = 0001, B = 1111,S1 = 0,S0 = 0, Add_Sub = 10000, is A>B:0, is A=B:0, is A<B:0, AND = 0000
at T=  66:A = 0010, B = 0000,S1 = 0,S0 = 0, Add_Sub = 00010, is A>B:0, is A=B:0, is A<B:0, AND = 0000
at T=  68:A = 0010, B = 0001,S1 = 0,S0 = 0, Add_Sub = 00011, is A>B:0, is A=B:0, is A<B:0, AND = 0000
at T=  70:A = 0010, B = 0010,S1 = 0,S0 = 0, Add_Sub = 00100, is A>B:0, is A=B:0, is A<B:0, AND = 0000
at T=  72:A = 0010, B = 0011,S1 = 0,S0 = 0, Add_Sub = 00101, is A>B:0, is A=B:0, is A<B:0, AND = 0000
at T=  74:A = 0010, B = 0100,S1 = 0,S0 = 0, Add_Sub = 00110, is A>B:0, is A=B:0, is A<B:0, AND = 0000
at T=  76:A = 0010, B = 0101,S1 = 0,S0 = 0, Add_Sub = 00111, is A>B:0, is A=B:0, is A<B:0, AND = 0000
at T=  78:A = 0010, B = 0110,S1 = 0,S0 = 0, Add_Sub = 01000, is A>B:0, is A=B:0, is A<B:0, AND = 0000
at T=  80:A = 0010, B = 0111,S1 = 0,S0 = 0, Add_Sub = 01001, is A>B:0, is A=B:0, is A<B:0, AND = 0000
at T=  82:A = 0010, B = 1000,S1 = 0,S0 = 0, Add_Sub = 01010, is A>B:0, is A=B:0, is A<B:0, AND = 0000
at T=  84:A = 0010, B = 1001,S1 = 0,S0 = 0, Add_Sub = 01011, is A>B:0, is A=B:0, is A<B:0, AND = 0000
at T=  86:A = 0010, B = 1010,S1 = 0,S0 = 0, Add_Sub = 01100, is A>B:0, is A=B:0, is A<B:0, AND = 0000
at T=  88:A = 0010, B = 1011,S1 = 0,S0 = 0, Add_Sub = 01101, is A>B:0, is A=B:0, is A<B:0, AND = 0000
at T=  90:A = 0010, B = 1100,S1 = 0,S0 = 0, Add_Sub = 01110, is A>B:0, is A=B:0, is A<B:0, AND = 0000
at T=  92:A = 0010, B = 1101,S1 = 0,S0 = 0, Add_Sub = 01111, is A>B:0, is A=B:0, is A<B:0, AND = 0000
at T=  94:A = 0010, B = 1110,S1 = 0,S0 = 0, Add_Sub = 10000, is A>B:0, is A=B:0, is A<B:0, AND = 0000
at T=  96:A = 0010, B = 1111,S1 = 0,S0 = 0, Add_Sub = 10001, is A>B:0, is A=B:0, is A<B:0, AND = 0000
at T=  98:A = 0011, B = 0000,S1 = 0,S0 = 0, Add_Sub = 00011, is A>B:0, is A=B:0, is A<B:0, AND = 0000
at T= 100:A = 0011, B = 0001,S1 = 0,S0 = 0, Add_Sub = 00100, is A>B:0, is A=B:0, is A<B:0, AND = 0000
at T= 102:A = 0011, B = 0010,S1 = 0,S0 = 0, Add_Sub = 00101, is A>B:0, is A=B:0, is A<B:0, AND = 0000
at T= 104:A = 0011, B = 0011,S1 = 0,S0 = 0, Add_Sub = 00110, is A>B:0, is A=B:0, is A<B:0, AND = 0000
at T= 106:A = 0011, B = 0100,S1 = 0,S0 = 0, Add_Sub = 00111, is A>B:0, is A=B:0, is A<B:0, AND = 0000
at T= 108:A = 0011, B = 0101,S1 = 0,S0 = 0, Add_Sub = 01000, is A>B:0, is A=B:0, is A<B:0, AND = 0000
at T= 110:A = 0011, B = 0110,S1 = 0,S0 = 0, Add_Sub = 01001, is A>B:0, is A=B:0, is A<B:0, AND = 0000
at T= 112:A = 0011, B = 0111,S1 = 0,S0 = 0, Add_Sub = 01010, is A>B:0, is A=B:0, is A<B:0, AND = 0000
at T= 114:A = 0011, B = 1000,S1 = 0,S0 = 0, Add_Sub = 01011, is A>B:0, is A=B:0, is A<B:0, AND = 0000
at T= 116:A = 0011, B = 1001,S1 = 0,S0 = 0, Add_Sub = 01100, is A>B:0, is A=B:0, is A<B:0, AND = 0000
at T= 118:A = 0011, B = 1010,S1 = 0,S0 = 0, Add_Sub = 01101, is A>B:0, is A=B:0, is A<B:0, AND = 0000
at T= 120:A = 0011, B = 1011,S1 = 0,S0 = 0, Add_Sub = 01110, is A>B:0, is A=B:0, is A<B:0, AND = 0000
at T= 122:A = 0011, B = 1100,S1 = 0,S0 = 0, Add_Sub = 01111, is A>B:0, is A=B:0, is A<B:0, AND = 0000
at T= 124:A = 0011, B = 1101,S1 = 0,S0 = 0, Add_Sub = 10000, is A>B:0, is A=B:0, is A<B:0, AND = 0000
at T= 126:A = 0011, B = 1110,S1 = 0,S0 = 0, Add_Sub = 10001, is A>B:0, is A=B:0, is A<B:0, AND = 0000
at T= 128:A = 0011, B = 1111,S1 = 0,S0 = 0, Add_Sub = 10010, is A>B:0, is A=B:0, is A<B:0, AND = 0000
at T= 130:A = 0100, B = 0000,S1 = 0,S0 = 0, Add_Sub = 00100, is A>B:0, is A=B:0, is A<B:0, AND = 0000
at T= 132:A = 0100, B = 0001,S1 = 0,S0 = 0, Add_Sub = 00101, is A>B:0, is A=B:0, is A<B:0, AND = 0000
at T= 134:A = 0100, B = 0010,S1 = 0,S0 = 0, Add_Sub = 00110, is A>B:0, is A=B:0, is A<B:0, AND = 0000
at T= 136:A = 0100, B = 0011,S1 = 0,S0 = 0, Add_Sub = 00111, is A>B:0, is A=B:0, is A<B:0, AND = 0000
at T= 138:A = 0100, B = 0100,S1 = 0,S0 = 0, Add_Sub = 01000, is A>B:0, is A=B:0, is A<B:0, AND = 0000
at T= 140:A = 0100, B = 0101,S1 = 0,S0 = 0, Add_Sub = 01001, is A>B:0, is A=B:0, is A<B:0, AND = 0000
at T= 142:A = 0100, B = 0110,S1 = 0,S0 = 0, Add_Sub = 01010, is A>B:0, is A=B:0, is A<B:0, AND = 0000
at T= 144:A = 0100, B = 0111,S1 = 0,S0 = 0, Add_Sub = 01011, is A>B:0, is A=B:0, is A<B:0, AND = 0000
at T= 146:A = 0100, B = 1000,S1 = 0,S0 = 0, Add_Sub = 01100, is A>B:0, is A=B:0, is A<B:0, AND = 0000
at T= 148:A = 0100, B = 1001,S1 = 0,S0 = 0, Add_Sub = 01101, is A>B:0, is A=B:0, is A<B:0, AND = 0000
at T= 150:A = 0100, B = 1010,S1 = 0,S0 = 0, Add_Sub = 01110, is A>B:0, is A=B:0, is A<B:0, AND = 0000
at T= 152:A = 0100, B = 1011,S1 = 0,S0 = 0, Add_Sub = 01111, is A>B:0, is A=B:0, is A<B:0, AND = 0000
at T= 154:A = 0100, B = 1100,S1 = 0,S0 = 0, Add_Sub = 10000, is A>B:0, is A=B:0, is A<B:0, AND = 0000
at T= 156:A = 0100, B = 1101,S1 = 0,S0 = 0, Add_Sub = 10001, is A>B:0, is A=B:0, is A<B:0, AND = 0000
at T= 158:A = 0100, B = 1110,S1 = 0,S0 = 0, Add_Sub = 10010, is A>B:0, is A=B:0, is A<B:0, AND = 0000
at T= 160:A = 0100, B = 1111,S1 = 0,S0 = 0, Add_Sub = 10011, is A>B:0, is A=B:0, is A<B:0, AND = 0000
at T= 162:A = 0101, B = 0000,S1 = 0,S0 = 0, Add_Sub = 00101, is A>B:0, is A=B:0, is A<B:0, AND = 0000
at T= 164:A = 0101, B = 0001,S1 = 0,S0 = 0, Add_Sub = 00110, is A>B:0, is A=B:0, is A<B:0, AND = 0000
at T= 166:A = 0101, B = 0010,S1 = 0,S0 = 0, Add_Sub = 00111, is A>B:0, is A=B:0, is A<B:0, AND = 0000
at T= 168:A = 0101, B = 0011,S1 = 0,S0 = 0, Add_Sub = 01000, is A>B:0, is A=B:0, is A<B:0, AND = 0000
at T= 170:A = 0101, B = 0100,S1 = 0,S0 = 0, Add_Sub = 01001, is A>B:0, is A=B:0, is A<B:0, AND = 0000
at T= 172:A = 0101, B = 0101,S1 = 0,S0 = 0, Add_Sub = 01010, is A>B:0, is A=B:0, is A<B:0, AND = 0000
at T= 174:A = 0101, B = 0110,S1 = 0,S0 = 0, Add_Sub = 01011, is A>B:0, is A=B:0, is A<B:0, AND = 0000
at T= 176:A = 0101, B = 0111,S1 = 0,S0 = 0, Add_Sub = 01100, is A>B:0, is A=B:0, is A<B:0, AND = 0000
at T= 178:A = 0101, B = 1000,S1 = 0,S0 = 0, Add_Sub = 01101, is A>B:0, is A=B:0, is A<B:0, AND = 0000
at T= 180:A = 0101, B = 1001,S1 = 0,S0 = 0, Add_Sub = 01110, is A>B:0, is A=B:0, is A<B:0, AND = 0000
at T= 182:A = 0101, B = 1010,S1 = 0,S0 = 0, Add_Sub = 01111, is A>B:0, is A=B:0, is A<B:0, AND = 0000
at T= 184:A = 0101, B = 1011,S1 = 0,S0 = 0, Add_Sub = 10000, is A>B:0, is A=B:0, is A<B:0, AND = 0000
at T= 186:A = 0101, B = 1100,S1 = 0,S0 = 0, Add_Sub = 10001, is A>B:0, is A=B:0, is A<B:0, AND = 0000
at T= 188:A = 0101, B = 1101,S1 = 0,S0 = 0, Add_Sub = 10010, is A>B:0, is A=B:0, is A<B:0, AND = 0000
at T= 190:A = 0101, B = 1110,S1 = 0,S0 = 0, Add_Sub = 10011, is A>B:0, is A=B:0, is A<B:0, AND = 0000
at T= 192:A = 0101, B = 1111,S1 = 0,S0 = 0, Add_Sub = 10100, is A>B:0, is A=B:0, is A<B:0, AND = 0000
at T= 194:A = 0110, B = 0000,S1 = 0,S0 = 0, Add_Sub = 00110, is A>B:0, is A=B:0, is A<B:0, AND = 0000
at T= 196:A = 0110, B = 0001,S1 = 0,S0 = 0, Add_Sub = 00111, is A>B:0, is A=B:0, is A<B:0, AND = 0000
at T= 198:A = 0110, B = 0010,S1 = 0,S0 = 0, Add_Sub = 01000, is A>B:0, is A=B:0, is A<B:0, AND = 0000
at T= 200:A = 0110, B = 0011,S1 = 0,S0 = 0, Add_Sub = 01001, is A>B:0, is A=B:0, is A<B:0, AND = 0000
at T= 202:A = 0110, B = 0100,S1 = 0,S0 = 0, Add_Sub = 01010, is A>B:0, is A=B:0, is A<B:0, AND = 0000
at T= 204:A = 0110, B = 0101,S1 = 0,S0 = 0, Add_Sub = 01011, is A>B:0, is A=B:0, is A<B:0, AND = 0000
at T= 206:A = 0110, B = 0110,S1 = 0,S0 = 0, Add_Sub = 01100, is A>B:0, is A=B:0, is A<B:0, AND = 0000
at T= 208:A = 0110, B = 0111,S1 = 0,S0 = 0, Add_Sub = 01101, is A>B:0, is A=B:0, is A<B:0, AND = 0000
at T= 210:A = 0110, B = 1000,S1 = 0,S0 = 0, Add_Sub = 01110, is A>B:0, is A=B:0, is A<B:0, AND = 0000
at T= 212:A = 0110, B = 1001,S1 = 0,S0 = 0, Add_Sub = 01111, is A>B:0, is A=B:0, is A<B:0, AND = 0000
at T= 214:A = 0110, B = 1010,S1 = 0,S0 = 0, Add_Sub = 10000, is A>B:0, is A=B:0, is A<B:0, AND = 0000
at T= 216:A = 0110, B = 1011,S1 = 0,S0 = 0, Add_Sub = 10001, is A>B:0, is A=B:0, is A<B:0, AND = 0000
at T= 218:A = 0110, B = 1100,S1 = 0,S0 = 0, Add_Sub = 10010, is A>B:0, is A=B:0, is A<B:0, AND = 0000
at T= 220:A = 0110, B = 1101,S1 = 0,S0 = 0, Add_Sub = 10011, is A>B:0, is A=B:0, is A<B:0, AND = 0000
at T= 222:A = 0110, B = 1110,S1 = 0,S0 = 0, Add_Sub = 10100, is A>B:0, is A=B:0, is A<B:0, AND = 0000
at T= 224:A = 0110, B = 1111,S1 = 0,S0 = 0, Add_Sub = 10101, is A>B:0, is A=B:0, is A<B:0, AND = 0000
at T= 226:A = 0111, B = 0000,S1 = 0,S0 = 0, Add_Sub = 00111, is A>B:0, is A=B:0, is A<B:0, AND = 0000
at T= 228:A = 0111, B = 0001,S1 = 0,S0 = 0, Add_Sub = 01000, is A>B:0, is A=B:0, is A<B:0, AND = 0000
at T= 230:A = 0111, B = 0010,S1 = 0,S0 = 0, Add_Sub = 01001, is A>B:0, is A=B:0, is A<B:0, AND = 0000
at T= 232:A = 0111, B = 0011,S1 = 0,S0 = 0, Add_Sub = 01010, is A>B:0, is A=B:0, is A<B:0, AND = 0000
at T= 234:A = 0111, B = 0100,S1 = 0,S0 = 0, Add_Sub = 01011, is A>B:0, is A=B:0, is A<B:0, AND = 0000
at T= 236:A = 0111, B = 0101,S1 = 0,S0 = 0, Add_Sub = 01100, is A>B:0, is A=B:0, is A<B:0, AND = 0000
at T= 238:A = 0111, B = 0110,S1 = 0,S0 = 0, Add_Sub = 01101, is A>B:0, is A=B:0, is A<B:0, AND = 0000
at T= 240:A = 0111, B = 0111,S1 = 0,S0 = 0, Add_Sub = 01110, is A>B:0, is A=B:0, is A<B:0, AND = 0000
at T= 242:A = 0111, B = 1000,S1 = 0,S0 = 0, Add_Sub = 01111, is A>B:0, is A=B:0, is A<B:0, AND = 0000
at T= 244:A = 0111, B = 1001,S1 = 0,S0 = 0, Add_Sub = 10000, is A>B:0, is A=B:0, is A<B:0, AND = 0000
at T= 246:A = 0111, B = 1010,S1 = 0,S0 = 0, Add_Sub = 10001, is A>B:0, is A=B:0, is A<B:0, AND = 0000
at T= 248:A = 0111, B = 1011,S1 = 0,S0 = 0, Add_Sub = 10010, is A>B:0, is A=B:0, is A<B:0, AND = 0000
at T= 250:A = 0111, B = 1100,S1 = 0,S0 = 0, Add_Sub = 10011, is A>B:0, is A=B:0, is A<B:0, AND = 0000
at T= 252:A = 0111, B = 1101,S1 = 0,S0 = 0, Add_Sub = 10100, is A>B:0, is A=B:0, is A<B:0, AND = 0000
at T= 254:A = 0111, B = 1110,S1 = 0,S0 = 0, Add_Sub = 10101, is A>B:0, is A=B:0, is A<B:0, AND = 0000
at T= 256:A = 0111, B = 1111,S1 = 0,S0 = 0, Add_Sub = 10110, is A>B:0, is A=B:0, is A<B:0, AND = 0000
at T= 258:A = 1000, B = 0000,S1 = 0,S0 = 0, Add_Sub = 01000, is A>B:0, is A=B:0, is A<B:0, AND = 0000
at T= 260:A = 1000, B = 0001,S1 = 0,S0 = 0, Add_Sub = 01001, is A>B:0, is A=B:0, is A<B:0, AND = 0000
at T= 262:A = 1000, B = 0010,S1 = 0,S0 = 0, Add_Sub = 01010, is A>B:0, is A=B:0, is A<B:0, AND = 0000
at T= 264:A = 1000, B = 0011,S1 = 0,S0 = 0, Add_Sub = 01011, is A>B:0, is A=B:0, is A<B:0, AND = 0000
at T= 266:A = 1000, B = 0100,S1 = 0,S0 = 0, Add_Sub = 01100, is A>B:0, is A=B:0, is A<B:0, AND = 0000
at T= 268:A = 1000, B = 0101,S1 = 0,S0 = 0, Add_Sub = 01101, is A>B:0, is A=B:0, is A<B:0, AND = 0000
at T= 270:A = 1000, B = 0110,S1 = 0,S0 = 0, Add_Sub = 01110, is A>B:0, is A=B:0, is A<B:0, AND = 0000
at T= 272:A = 1000, B = 0111,S1 = 0,S0 = 0, Add_Sub = 01111, is A>B:0, is A=B:0, is A<B:0, AND = 0000
at T= 274:A = 1000, B = 1000,S1 = 0,S0 = 0, Add_Sub = 10000, is A>B:0, is A=B:0, is A<B:0, AND = 0000
at T= 276:A = 1000, B = 1001,S1 = 0,S0 = 0, Add_Sub = 10001, is A>B:0, is A=B:0, is A<B:0, AND = 0000
at T= 278:A = 1000, B = 1010,S1 = 0,S0 = 0, Add_Sub = 10010, is A>B:0, is A=B:0, is A<B:0, AND = 0000
at T= 280:A = 1000, B = 1011,S1 = 0,S0 = 0, Add_Sub = 10011, is A>B:0, is A=B:0, is A<B:0, AND = 0000
at T= 282:A = 1000, B = 1100,S1 = 0,S0 = 0, Add_Sub = 10100, is A>B:0, is A=B:0, is A<B:0, AND = 0000
at T= 284:A = 1000, B = 1101,S1 = 0,S0 = 0, Add_Sub = 10101, is A>B:0, is A=B:0, is A<B:0, AND = 0000
at T= 286:A = 1000, B = 1110,S1 = 0,S0 = 0, Add_Sub = 10110, is A>B:0, is A=B:0, is A<B:0, AND = 0000
at T= 288:A = 1000, B = 1111,S1 = 0,S0 = 0, Add_Sub = 10111, is A>B:0, is A=B:0, is A<B:0, AND = 0000
at T= 290:A = 1001, B = 0000,S1 = 0,S0 = 0, Add_Sub = 01001, is A>B:0, is A=B:0, is A<B:0, AND = 0000
at T= 292:A = 1001, B = 0001,S1 = 0,S0 = 0, Add_Sub = 01010, is A>B:0, is A=B:0, is A<B:0, AND = 0000
at T= 294:A = 1001, B = 0010,S1 = 0,S0 = 0, Add_Sub = 01011, is A>B:0, is A=B:0, is A<B:0, AND = 0000
at T= 296:A = 1001, B = 0011,S1 = 0,S0 = 0, Add_Sub = 01100, is A>B:0, is A=B:0, is A<B:0, AND = 0000
at T= 298:A = 1001, B = 0100,S1 = 0,S0 = 0, Add_Sub = 01101, is A>B:0, is A=B:0, is A<B:0, AND = 0000
at T= 300:A = 1001, B = 0101,S1 = 0,S0 = 0, Add_Sub = 01110, is A>B:0, is A=B:0, is A<B:0, AND = 0000
at T= 302:A = 1001, B = 0110,S1 = 0,S0 = 0, Add_Sub = 01111, is A>B:0, is A=B:0, is A<B:0, AND = 0000
at T= 304:A = 1001, B = 0111,S1 = 0,S0 = 0, Add_Sub = 10000, is A>B:0, is A=B:0, is A<B:0, AND = 0000
at T= 306:A = 1001, B = 1000,S1 = 0,S0 = 0, Add_Sub = 10001, is A>B:0, is A=B:0, is A<B:0, AND = 0000
at T= 308:A = 1001, B = 1001,S1 = 0,S0 = 0, Add_Sub = 10010, is A>B:0, is A=B:0, is A<B:0, AND = 0000
at T= 310:A = 1001, B = 1010,S1 = 0,S0 = 0, Add_Sub = 10011, is A>B:0, is A=B:0, is A<B:0, AND = 0000
at T= 312:A = 1001, B = 1011,S1 = 0,S0 = 0, Add_Sub = 10100, is A>B:0, is A=B:0, is A<B:0, AND = 0000
at T= 314:A = 1001, B = 1100,S1 = 0,S0 = 0, Add_Sub = 10101, is A>B:0, is A=B:0, is A<B:0, AND = 0000
at T= 316:A = 1001, B = 1101,S1 = 0,S0 = 0, Add_Sub = 10110, is A>B:0, is A=B:0, is A<B:0, AND = 0000
at T= 318:A = 1001, B = 1110,S1 = 0,S0 = 0, Add_Sub = 10111, is A>B:0, is A=B:0, is A<B:0, AND = 0000
at T= 320:A = 1001, B = 1111,S1 = 0,S0 = 0, Add_Sub = 11000, is A>B:0, is A=B:0, is A<B:0, AND = 0000
at T= 322:A = 1010, B = 0000,S1 = 0,S0 = 0, Add_Sub = 01010, is A>B:0, is A=B:0, is A<B:0, AND = 0000
at T= 324:A = 1010, B = 0001,S1 = 0,S0 = 0, Add_Sub = 01011, is A>B:0, is A=B:0, is A<B:0, AND = 0000
at T= 326:A = 1010, B = 0010,S1 = 0,S0 = 0, Add_Sub = 01100, is A>B:0, is A=B:0, is A<B:0, AND = 0000
at T= 328:A = 1010, B = 0011,S1 = 0,S0 = 0, Add_Sub = 01101, is A>B:0, is A=B:0, is A<B:0, AND = 0000
at T= 330:A = 1010, B = 0100,S1 = 0,S0 = 0, Add_Sub = 01110, is A>B:0, is A=B:0, is A<B:0, AND = 0000
at T= 332:A = 1010, B = 0101,S1 = 0,S0 = 0, Add_Sub = 01111, is A>B:0, is A=B:0, is A<B:0, AND = 0000
at T= 334:A = 1010, B = 0110,S1 = 0,S0 = 0, Add_Sub = 10000, is A>B:0, is A=B:0, is A<B:0, AND = 0000
at T= 336:A = 1010, B = 0111,S1 = 0,S0 = 0, Add_Sub = 10001, is A>B:0, is A=B:0, is A<B:0, AND = 0000
at T= 338:A = 1010, B = 1000,S1 = 0,S0 = 0, Add_Sub = 10010, is A>B:0, is A=B:0, is A<B:0, AND = 0000
at T= 340:A = 1010, B = 1001,S1 = 0,S0 = 0, Add_Sub = 10011, is A>B:0, is A=B:0, is A<B:0, AND = 0000
at T= 342:A = 1010, B = 1010,S1 = 0,S0 = 0, Add_Sub = 10100, is A>B:0, is A=B:0, is A<B:0, AND = 0000
at T= 344:A = 1010, B = 1011,S1 = 0,S0 = 0, Add_Sub = 10101, is A>B:0, is A=B:0, is A<B:0, AND = 0000
at T= 346:A = 1010, B = 1100,S1 = 0,S0 = 0, Add_Sub = 10110, is A>B:0, is A=B:0, is A<B:0, AND = 0000
at T= 348:A = 1010, B = 1101,S1 = 0,S0 = 0, Add_Sub = 10111, is A>B:0, is A=B:0, is A<B:0, AND = 0000
at T= 350:A = 1010, B = 1110,S1 = 0,S0 = 0, Add_Sub = 11000, is A>B:0, is A=B:0, is A<B:0, AND = 0000
at T= 352:A = 1010, B = 1111,S1 = 0,S0 = 0, Add_Sub = 11001, is A>B:0, is A=B:0, is A<B:0, AND = 0000
at T= 354:A = 1011, B = 0000,S1 = 0,S0 = 0, Add_Sub = 01011, is A>B:0, is A=B:0, is A<B:0, AND = 0000
at T= 356:A = 1011, B = 0001,S1 = 0,S0 = 0, Add_Sub = 01100, is A>B:0, is A=B:0, is A<B:0, AND = 0000
at T= 358:A = 1011, B = 0010,S1 = 0,S0 = 0, Add_Sub = 01101, is A>B:0, is A=B:0, is A<B:0, AND = 0000
at T= 360:A = 1011, B = 0011,S1 = 0,S0 = 0, Add_Sub = 01110, is A>B:0, is A=B:0, is A<B:0, AND = 0000
at T= 362:A = 1011, B = 0100,S1 = 0,S0 = 0, Add_Sub = 01111, is A>B:0, is A=B:0, is A<B:0, AND = 0000
at T= 364:A = 1011, B = 0101,S1 = 0,S0 = 0, Add_Sub = 10000, is A>B:0, is A=B:0, is A<B:0, AND = 0000
at T= 366:A = 1011, B = 0110,S1 = 0,S0 = 0, Add_Sub = 10001, is A>B:0, is A=B:0, is A<B:0, AND = 0000
at T= 368:A = 1011, B = 0111,S1 = 0,S0 = 0, Add_Sub = 10010, is A>B:0, is A=B:0, is A<B:0, AND = 0000
at T= 370:A = 1011, B = 1000,S1 = 0,S0 = 0, Add_Sub = 10011, is A>B:0, is A=B:0, is A<B:0, AND = 0000
at T= 372:A = 1011, B = 1001,S1 = 0,S0 = 0, Add_Sub = 10100, is A>B:0, is A=B:0, is A<B:0, AND = 0000
at T= 374:A = 1011, B = 1010,S1 = 0,S0 = 0, Add_Sub = 10101, is A>B:0, is A=B:0, is A<B:0, AND = 0000
at T= 376:A = 1011, B = 1011,S1 = 0,S0 = 0, Add_Sub = 10110, is A>B:0, is A=B:0, is A<B:0, AND = 0000
at T= 378:A = 1011, B = 1100,S1 = 0,S0 = 0, Add_Sub = 10111, is A>B:0, is A=B:0, is A<B:0, AND = 0000
at T= 380:A = 1011, B = 1101,S1 = 0,S0 = 0, Add_Sub = 11000, is A>B:0, is A=B:0, is A<B:0, AND = 0000
at T= 382:A = 1011, B = 1110,S1 = 0,S0 = 0, Add_Sub = 11001, is A>B:0, is A=B:0, is A<B:0, AND = 0000
at T= 384:A = 1011, B = 1111,S1 = 0,S0 = 0, Add_Sub = 11010, is A>B:0, is A=B:0, is A<B:0, AND = 0000
at T= 386:A = 1100, B = 0000,S1 = 0,S0 = 0, Add_Sub = 01100, is A>B:0, is A=B:0, is A<B:0, AND = 0000
at T= 388:A = 1100, B = 0001,S1 = 0,S0 = 0, Add_Sub = 01101, is A>B:0, is A=B:0, is A<B:0, AND = 0000
at T= 390:A = 1100, B = 0010,S1 = 0,S0 = 0, Add_Sub = 01110, is A>B:0, is A=B:0, is A<B:0, AND = 0000
at T= 392:A = 1100, B = 0011,S1 = 0,S0 = 0, Add_Sub = 01111, is A>B:0, is A=B:0, is A<B:0, AND = 0000
at T= 394:A = 1100, B = 0100,S1 = 0,S0 = 0, Add_Sub = 10000, is A>B:0, is A=B:0, is A<B:0, AND = 0000
at T= 396:A = 1100, B = 0101,S1 = 0,S0 = 0, Add_Sub = 10001, is A>B:0, is A=B:0, is A<B:0, AND = 0000
at T= 398:A = 1100, B = 0110,S1 = 0,S0 = 0, Add_Sub = 10010, is A>B:0, is A=B:0, is A<B:0, AND = 0000
at T= 400:A = 1100, B = 0111,S1 = 0,S0 = 0, Add_Sub = 10011, is A>B:0, is A=B:0, is A<B:0, AND = 0000
at T= 402:A = 1100, B = 1000,S1 = 0,S0 = 0, Add_Sub = 10100, is A>B:0, is A=B:0, is A<B:0, AND = 0000
at T= 404:A = 1100, B = 1001,S1 = 0,S0 = 0, Add_Sub = 10101, is A>B:0, is A=B:0, is A<B:0, AND = 0000
at T= 406:A = 1100, B = 1010,S1 = 0,S0 = 0, Add_Sub = 10110, is A>B:0, is A=B:0, is A<B:0, AND = 0000
at T= 408:A = 1100, B = 1011,S1 = 0,S0 = 0, Add_Sub = 10111, is A>B:0, is A=B:0, is A<B:0, AND = 0000
at T= 410:A = 1100, B = 1100,S1 = 0,S0 = 0, Add_Sub = 11000, is A>B:0, is A=B:0, is A<B:0, AND = 0000
at T= 412:A = 1100, B = 1101,S1 = 0,S0 = 0, Add_Sub = 11001, is A>B:0, is A=B:0, is A<B:0, AND = 0000
at T= 414:A = 1100, B = 1110,S1 = 0,S0 = 0, Add_Sub = 11010, is A>B:0, is A=B:0, is A<B:0, AND = 0000
at T= 416:A = 1100, B = 1111,S1 = 0,S0 = 0, Add_Sub = 11011, is A>B:0, is A=B:0, is A<B:0, AND = 0000
at T= 418:A = 1101, B = 0000,S1 = 0,S0 = 0, Add_Sub = 01101, is A>B:0, is A=B:0, is A<B:0, AND = 0000
