Verilog/Add(or)Sub/adder_subtractor_out.vcd
$date
	Fri Oct 27 02:50:31 2023
$end
$version
	Icarus Verilog
$end
$timescale
	1s
$end
$scope module adder_subtractor_tb $end
$scope module adder_subtractor_tb $end
$var wire 1 ! A0 $end
$var wire 1 " A1 $end
$var wire 1 # A2 $end
$var wire 1 $ A3 $end
$var wire 1 % B0 $end
$var wire 1 & B1 $end
$var wire 1 ' B2 $end
$var wire 1 ( B3 $end
$var wire 1 ) M $end
$var wire 1 * m0 $end
$var wire 1 + m1 $end
$var wire 1 , m2 $end
$var wire 1 - m3 $end
$var wire 1 . out3 $end
$var wire 1 / out2 $end
$var wire 1 0 out1 $end
$var wire 1 1 out0 $end
$var wire 1 2 carry $end
$var wire 1 3 c2 $end
$var wire 1 4 c1 $end
$var wire 1 5 c0 $end
$scope module FA1 $end
$var wire 1 ! a $end
$var wire 1 * b $end
$var wire 1 6 c1 $end
$var wire 1 7 c2 $end
$var wire 1 ) cin $end
$var wire 1 5 cout $end
$var wire 1 8 s1 $end
$var wire 1 1 sout $end
$upscope $end
$scope module FA2 $end
$var wire 1 " a $end
$var wire 1 + b $end
$var wire 1 9 c1 $end
$var wire 1 : c2 $end
$var wire 1 5 cin $end
$var wire 1 4 cout $end
$var wire 1 ; s1 $end
$var wire 1 0 sout $end
$upscope $end
$scope module FA3 $end
$var wire 1 # a $end
$var wire 1 , b $end
$var wire 1 < c1 $end
$var wire 1 = c2 $end
$var wire 1 4 cin $end
$var wire 1 3 cout $end
$var wire 1 > s1 $end
$var wire 1 / sout $end
$upscope $end
$scope module FA4 $end
$var wire 1 $ a $end
$var wire 1 - b $end
$var wire 1 ? c1 $end
$var wire 1 @ c2 $end
$var wire 1 3 cin $end
$var wire 1 2 cout $end
$var wire 1 A s1 $end
$var wire 1 . sout $end
$upscope $end
$upscope $end
$upscope $end
$enddefinitions $end
#0
$dumpvars
xA
x@
x?
x>
x=
x<
x;
x:
x9
x8
x7
x6
x5
x4
x3
x2
x1
x0
x/
x.
x-
x,
x+
x*
x)
x(
x'
x&
x%
x$
x#
x"
x!
$end
#5
0.
0/
03
02
04
01
0=
0@
00
0:
08
0;
0>
0A
05
07
0*
0+
0,
0-
06
09
0<
0?
0)
0%
0&
0'
0(
0!
0"
0#
0$
#10
12
1@
13
1=
14
1:
15
17
00
0/
0.
18
1;
1>
1A
1*
1+
1,
1-
01
1)
#15
03
02
04
0/
0=
0.
0@
0:
0;
0>
0A
05
0+
0,
0-
11
07
0)
1%
#20
02
0@
03
10
0=
04
1/
1.
0:
08
1;
1>
1A
05
0*
1+
1,
1-
11
07
1)
#25
0/
0.
0>
0A
0,
0-
01
0)
0%
1&
#30
15
17
10
1/
1.
18
0;
1>
1A
1*
0+
1,
1-
01
1)
#35
0/
0.
1;
0>
0A
05
1+
0,
0-
11
07
0)
1%
#40
00
1/
1.
08
0;
1>
1A
05
0*
0+
1,
1-
11
07
1)
#45
0.
0A
0-
01
0)
0%
0&
1'
#50
14
1:
15
17
00
1/
1.
18
1;
0>
1A
1*
1+
0,
1-
01
1)
#55
03
04
1/
0=
0.
0:
0;
1>
0A
05
0+
1,
0-
11
07
0)
1%
#60
10
04
0/
1.
0:
08
1;
0>
1A
05
0*
1+
0,
1-
11
07
1)
#65
1/
0.
1>
0A
1,
0-
01
0)
0%
1&
#70
15
17
10
0/
1.
18
0;
0>
1A
1*
0+
0,
1-
01
1)
#75
1/
0.
1;
1>
0A
05
1+
1,
0-
11
07
0)
1%
#80
00
0/
1.
08
0;
0>
1A
05
0*
0+
0,
1-
11
07
1)
#85
01
0)
0%
0&
0'
1(
#90
13
1=
14
1:
15
17
00
0/
1.
18
1;
1>
0A
1*
1+
1,
0-
01
1)
#95
03
02
04
0/
0=
1.
0@
0:
0;
0>
1A
05
0+
0,
1-
11
07
0)
1%
#100
03
10
0=
04
1/
0.
0:
08
1;
1>
0A
05
0*
1+
1,
0-
11
07
1)
#105
0/
1.
0>
1A
0,
1-
01
0)
0%
1&
#110
15
17
10
1/
0.
18
0;
1>
0A
1*
0+
1,
0-
01
1)
#115
0/
1.
1;
0>
1A
05
1+
0,
1-
11
07
0)
1%
#120
00
1/
0.
08
0;
1>
0A
05
0*
0+
1,
0-
11
07
1)
#125
1.
1A
1-
01
0)
0%
0&
1'
#130
14
1:
15
17
00
1/
0.
18
1;
0>
0A
1*
1+
0,
0-
01
1)
#135
02
0@
03
04
1/
0=
1.
0:
0;
1>
1A
05
0+
1,
1-
11
07
0)
1%
#140
10
04
0/
0.
0:
08
1;
0>
0A
05
0*
1+
0,
0-
11
07
1)
#145
1/
1.
1>
1A
1,
1-
01
0)
0%
1&
#150
15
17
10
0/
0.
18
0;
0>
0A
1*
0+
0,
0-
01
1)
#155
1/
1.
1;
1>
1A
05
1+
1,
1-
11
07
0)
1%
#160
00
0/
0.
08
0;
0>
0A
05
0*
0+
0,
0-
11
07
1)
#165
18
0)
0%
0&
0'
0(
1!
#170
12
1@
13
1=
14
0/
0.
1:
08
16
1;
1>
1A
15
1*
1+
1,
1-
11
07
1)
#175
04
03
02
10
0:
0/
0=
0.
0@
0;
0>
0A
0+
0,
0-
01
0)
1%
#180
12
1@
13
1=
14
17
15
00
1:
0/
0.
18
06
1;
1>
1A
0*
1+
1,
1-
01
1)
#185
03
02
04
0/
0=
0.
0@
10
0:
0>
0A
05
0,
0-
11
07
0)
0%
1&
#190
1/
1.
08
16
0;
1>
1A
15
1*
0+
1,
1-
11
07
1)
#195
14
00
1:
1/
0.
1;
0>
0A
1+
0,
0-
01
0)
1%
#200
02
0@
04
03
17
15
10
0:
1/
0=
1.
18
06
0;
1>
1A
0*
0+
1,
1-
01
1)
#205
0.
00
0A
05
0-
11
07
0)
0%
0&
1'
#210
14
1/
1.
1:
08
16
1;
0>
1A
15
1*
1+
0,
1-
11
07
1)
#215
04
03
10
0:
1/
0=
0.
0;
1>
0A
0+
1,
0-
01
0)
1%
#220
14
17
15
00
1:
1/
1.
18
06
1;
0>
1A
0*
1+
0,
1-
01
1)
#225
03
04
1/
0=
0.
10
0:
1>
0A
05
1,
0-
11
07
0)
0%
1&
#230
0/
1.
08
16
0;
0>
1A
15
1*
0+
0,
1-
11
07
1)
#235
13
1=
14
00
1:
0/
1.
1;
1>
0A
1+
1,
0-
01
0)
1%
#240
04
03
02
17
15
10
0:
0/
0=
1.
0@
18
06
0;
0>
1A
0*
0+
0,
1-
01
1)
#245
00
05
11
07
0)
0%
0&
0'
1(
#250
13
1=
14
0/
1.
1:
08
16
1;
1>
0A
15
1*
1+
1,
0-
11
07
1)
#255
04
03
02
10
0:
0/
0=
1.
0@
0;
0>
1A
0+
0,
1-
01
0)
1%
#260
13
1=
14
17
15
00
1:
0/
1.
18
06
1;
1>
0A
0*
1+
1,
0-
01
1)
#265
03
02
04
0/
0=
1.
0@
10
0:
0>
1A
05
0,
1-
11
07
0)
0%
1&
#270
1/
0.
08
16
0;
1>
0A
15
1*
0+
1,
0-
11
07
1)
#275
14
00
1:
1/
1.
1;
0>
1A
1+
0,
1-
01
0)
1%
#280
04
03
17
15
10
0:
1/
0=
0.
18
06
0;
1>
0A
0*
0+
1,
0-
01
1)
#285
1.
00
1A
05
1-
11
07
0)
0%
0&
1'
#290
14
1/
0.
1:
08
16
1;
0>
0A
15
1*
1+
0,
0-
11
07
1)
#295
02
0@
04
03
10
0:
1/
0=
1.
0;
1>
1A
0+
1,
1-
01
0)
1%
#300
14
17
15
00
1:
1/
0.
18
06
1;
0>
0A
0*
1+
0,
0-
01
1)
#305
02
0@
03
04
1/
0=
1.
10
0:
1>
1A
05
1,
1-
11
07
0)
0%
1&
#310
0/
0.
08
16
0;
0>
0A
15
1*
0+
0,
0-
11
07
1)
#315
12
1@
13
1=
14
00
1:
0/
0.
1;
1>
1A
1+
1,
1-
01
0)
1%
#320
04
03
02
17
15
10
0:
0/
0=
0.
0@
18
06
0;
0>
0A
0*
0+
0,
0-
01
1)
#325
0/
04
05
10
0:
07
08
1;
0)
0%
0&
0'
0(
0!
1"
#330
12
1@
13
15
1=
17
10
14
0/
0.
18
0;
19
1>
1A
1*
1+
1,
1-
01
1)
#335
03
02
04
0/
0=
0.
0@
1;
09
0>
0A
05
0+
0,
0-
11
07
0)
1%
#340
12
1@
00
13
1=
14
0/
0.
08
0;
19
1>
1A
05
0*
1+
1,
1-
11
07
1)
#345
03
02
1/
0=
0.
0@
0>
0A
0,
0-
01
0)
0%
1&
#350
12
1:
1@
15
13
17
00
14
0/
1=
0.
18
1;
09
1>
1A
1*
0+
1,
1-
01
1)
#355
03
02
1/
0=
0.
0@
0:
0;
19
0>
0A
05
1+
0,
0-
11
07
0)
1%
#360
04
02
10
0@
03
1/
0=
1.
0:
08
1;
09
1>
1A
05
0*
0+
1,
1-
11
07
1)
#365
0.
0A
0-
01
0)
0%
0&
1'
#370
15
17
10
14
1/
1.
18
0;
19
0>
1A
1*
1+
0,
1-
01
1)
#375
03
04
1/
0=
0.
1;
09
1>
0A
05
0+
1,
0-
11
07
0)
1%
#380
00
14
1/
1.
08
0;
19
0>
1A
05
0*
1+
0,
1-
11
07
1)
#385
13
0/
1=
1.
1>
0A
1,
0-
01
0)
0%
1&
#390
1:
15
03
02
17
00
14
1/
0=
1.
0@
18
1;
09
0>
1A
1*
0+
0,
1-
01
1)
#395
13
0/
1=
1.
0:
0;
19
1>
0A
05
1+
1,
0-
11
07
0)
1%
#400
04
10
03
02
0/
0=
1.
0@
0:
08
1;
09
0>
1A
05
0*
0+
0,
1-
11
07
1)
#405
01
0)
0%
0&
0'
1(
#410
13
15
1=
17
10
14
0/
1.
18
0;
19
1>
0A
1*
1+
1,
0-
01
1)
#415
03
02
04
0/
0=
1.
0@
1;
09
0>
1A
05
0+
0,
1-
11
07
0)
1%
#420
00
13
1=
14
0/
1.
08
0;
19
1>
0A
05
0*
1+
1,
0-
11
07
1)
#425
03
02
1/
0=
1.
0@
0>
1A
0,
1-
01
0)
0%
1&
#430
1:
15
13
17
00
14
0/
1=
1.
18
1;
09
1>
0A
1*
0+
1,
0-
01
1)
#435
03
02
1/
0=
1.
0@
0:
0;
19
0>
1A
05
1+
0,
1-
11
07
0)
1%
#440
04
10
03
1/
0=
0.
0:
08
1;
09
1>
0A
05
0*
0+
1,
0-
11
07
1)
#445
1.
1A
1-
01
0)
0%
0&
1'
#450
15
17
10
14
1/
0.
18
0;
19
0>
0A
1*
1+
0,
0-
01
1)
#455
02
0@
03
04
1/
0=
1.
1;
09
1>
1A
05
0+
1,
1-
11
07
0)
1%
#460
00
14
1/
0.
08
0;
19
0>
0A
05
0*
1+
0,
0-
11
07
1)
#465
12
1@
13
0/
1=
0.
1>
1A
1,
1-
01
0)
0%
1&
#470
1:
15
03
02
17
00
14
1/
0=
0.
0@
18
1;
09
0>
0A
1*
0+
0,
0-
01
1)
#475
12
1@
13
0/
1=
0.
0:
0;
19
1>
1A
05
1+
1,
1-
11
07
0)
1%
#480
04
10
03
02
0/
0=
0.
0@
0:
08
1;
09
0>
0A
05
0*
0+
0,
0-
11
07
1)
#485
18
0)
0%
0&
0'
0(
1!
#490
12
1@
13
1=
14
0/
0.
08
16
0;
19
1>
1A
15
1*
1+
1,
1-
11
07
1)
#495
03
02
00
1:
14
1/
0=
0.
0@
1;
09
0>
0A
0+
0,
0-
01
0)
1%
#500
12
1@
13
17
15
10
0:
0/
1=
0.
18
06
0;
19
1>
1A
0*
1+
1,
1-
01
1)
#505
03
02
1/
0=
0.
0@
00
0>
0A
05
0,
0-
11
07
0)
0%
1&
#510
12
1@
13
0/
1=
0.
1:
08
16
1;
09
1>
1A
15
1*
0+
1,
1-
11
07
1)
#515
03
02
10
0:
1/
0=
0.
0@
0;
19
0>
0A
1+
0,
0-
01
0)
1%
#520
12
1@
13
17
15
00
1:
14
0/
1=
0.
18
06
1;
09
1>
1A
0*
0+
1,
1-
01
1)
#525
03
1/
0=
02
04
0.
0@
10
0:
0A
05
0-
11
07
0)
0%
0&
1'
#530
14
1/
1.
08
16
0;
19
0>
1A
15
1*
1+
0,
1-
11
07
1)
#535
13
00
1:
14
0/
1=
1.
1;
09
1>
0A
0+
1,
0-
01
0)
1%
#540
03
02
17
15
10
0:
1/
0=
1.
0@
18
06
0;
19
0>
1A
0*
1+
0,
1-
01
1)
#545
13
0/
1=
1.
00
1>
0A
05
1,
0-
11
07
0)
0%
1&
#550
03
02
1/
0=
1.
0@
1:
08
16
1;
09
0>
1A
15
1*
0+
0,
1-
11
07
1)
#555
13
10
0:
0/
1=
1.
0;
19
1>
0A
1+
1,
0-
01
0)
1%
#560
03
02
17
15
00
1:
14
1/
0=
1.
0@
18
06
1;
09
0>
1A
0*
0+
0,
1-
01
1)
#565
0/
04
10
0:
05
11
07
0)
0%
0&
0'
1(
#570
13
1=
14
0/
1.
08
16
0;
19
1>
0A
15
1*
1+
1,
0-
11
07
1)
#575
03
02
00
1:
14
1/
0=
1.
0@
1;
09
0>
1A
0+
0,
1-
01
0)
1%
#580
13
17
15
10
0:
0/
1=
1.
18
06
0;
19
1>
0A
0*
1+
1,
0-
01
1)
#585
03
02
1/
0=
1.
0@
00
0>
1A
05
0,
1-
11
07
0)
0%
1&
#590
13
0/
1=
1.
1:
08
16
1;
09
1>
0A
15
1*
0+
1,
0-
11
07
1)
#595
03
02
10
0:
1/
0=
1.
0@
0;
19
0>
1A
1+
0,
1-
01
0)
1%
#600
13
17
15
00
1:
14
0/
1=
1.
18
06
1;
09
1>
0A
0*
0+
1,
0-
01
1)
#605
03
1/
0=
02
04
1.
0@
10
0:
1A
05
1-
11
07
0)
0%
0&
1'
#610
14
1/
0.
08
16
0;
19
0>
0A
15
1*
1+
0,
0-
11
07
1)
#615
12
1@
13
00
1:
14
0/
1=
0.
1;
09
1>
1A
0+
1,
1-
01
0)
1%
#620
03
02
17
15
10
0:
1/
0=
0.
0@
18
06
0;
19
0>
0A
0*
1+
0,
0-
01
1)
#625
12
1@
13
0/
1=
0.
00
1>
1A
05
1,
1-
11
07
0)
0%
1&
#630
03
02
1/
0=
0.
0@
1:
08
16
1;
09
0>
0A
15
1*
0+
0,
0-
11
07
1)
#635
12
1@
13
10
0:
0/
1=
0.
0;
19
1>
1A
1+
1,
1-
01
0)
1%
#640
03
02
17
15
00
1:
14
1/
0=
0.
0@
18
06
1;
09
0>
0A
0*
0+
0,
0-
01
1)
#645
0.
04
03
05
00
0:
1/
0=
07
08
0;
1>
0)
0%
0&
0'
0(
0!
0"
1#
#650
14
1:
12
15
1@
17
00
1/
13
0.
18
1;
0>
1<
1A
1*
1+
1,
1-
01
1)
#655
02
04
1/
0=
03
0.
0@
0:
0;
1>
0<
0A
05
0+
0,
0-
11
07
0)
1%
#660
10
12
1@
04
0/
13
0.
0:
08
1;
0>
1<
1A
05
0*
1+
1,
1-
11
07
1)
#665
02
1/
03
0.
0@
1>
0<
0A
0,
0-
01
0)
0%
1&
#670
12
15
1@
17
10
0/
13
0.
18
0;
0>
1<
1A
1*
0+
1,
1-
01
1)
#675
02
1/
03
0.
0@
1;
1>
0<
0A
05
1+
0,
0-
11
07
0)
1%
#680
00
12
1@
0/
13
0.
08
0;
0>
1<
1A
05
0*
0+
1,
1-
11
07
1)
#685
02
1.
0@
0A
0-
01
0)
0%
0&
1'
#690
1=
14
1:
15
12
17
00
0/
13
0.
1@
18
1;
1>
0<
1A
1*
1+
0,
1-
01
1)
#695
02
04
0/
0=
1.
0@
0:
0;
0>
1<
0A
05
0+
1,
0-
11
07
0)
1%
#700
10
0=
02
04
1/
03
1.
0@
0:
08
1;
1>
0<
1A
05
0*
1+
0,
1-
11
07
1)
#705
0/
13
1.
0>
1<
0A
1,
0-
01
0)
0%
1&
#710
15
02
17
10
1/
03
1.
0@
18
0;
1>
0<
1A
1*
0+
0,
1-
01
1)
#715
0/
13
1.
1;
0>
1<
0A
05
1+
1,
0-
11
07
0)
1%
#720
00
02
1/
03
1.
0@
08
0;
1>
0<
1A
05
0*
0+
0,
1-
11
07
1)
#725
01
0)
0%
0&
0'
1(
#730
14
1:
15
17
00
1/
13
1.
18
1;
0>
1<
0A
1*
1+
1,
0-
01
1)
#735
02
04
1/
0=
03
1.
0@
0:
0;
1>
0<
1A
05
0+
0,
1-
11
07
0)
1%
#740
10
04
0/
13
1.
0:
08
1;
0>
1<
0A
05
0*
1+
1,
0-
11
07
1)
#745
02
1/
03
1.
0@
1>
0<
1A
0,
1-
01
0)
0%
1&
#750
15
17
10
0/
13
1.
18
0;
0>
1<
0A
1*
0+
1,
0-
01
1)
#755
02
1/
03
1.
0@
1;
1>
0<
1A
05
1+
0,
1-
11
07
0)
1%
#760
00
0/
13
1.
08
0;
0>
1<
0A
05
0*
0+
1,
0-
11
07
1)
#765
12
0.
1@
1A
1-
01
0)
0%
0&
1'
#770
1=
14
1:
15
02
17
00
0/
13
1.
0@
18
1;
1>
0<
0A
1*
1+
0,
0-
01
1)
#775
12
04
0/
0=
0.
1@
0:
0;
0>
1<
1A
05
0+
1,
1-
11
07
0)
1%
#780
10
0=
02
04
1/
03
0.
0@
0:
08
1;
1>
0<
0A
05
0*
1+
0,
0-
11
07
1)
#785
12
1@
0/
13
0.
0>
1<
1A
1,
1-
01
0)
0%
1&
#790
15
02
17
10
1/
03
0.
0@
18
0;
1>
0<
0A
1*
0+
0,
0-
01
1)
#795
12
1@
0/
13
0.
1;
0>
1<
1A
05
1+
1,
1-
11
07
0)
1%
#800
00
02
1/
03
0.
0@
08
0;
1>
0<
0A
05
0*
0+
0,
0-
11
07
1)
#805
18
0)
0%
0&
0'
0(
1!
#810
12
1@
14
1/
13
0.
1:
08
16
1;
0>
1<
1A
15
1*
1+
1,
1-
11
07
1)
#815
04
02
10
0:
1/
0=
03
0.
0@
0;
1>
0<
0A
0+
0,
0-
01
0)
1%
#820
12
14
1@
17
15
00
1:
1/
13
0.
18
06
1;
0>
1<
1A
0*
1+
1,
1-
01
1)
#825
02
04
1/
0=
03
0.
0@
10
0:
1>
0<
0A
05
0,
0-
11
07
0)
0%
1&
#830
12
1@
0/
13
0.
08
16
0;
0>
1<
1A
15
1*
0+
1,
1-
11
07
1)
#835
1=
14
02
00
1:
0/
13
1.
0@
1;
1>
0<
0A
1+
0,
0-
01
0)
1%
#840
04
12
17
15
10
0:
0/
0=
0.
1@
18
06
0;
0>
1<
1A
0*
0+
1,
1-
01
1)
#845
02
1.
0@
00
0A
05
0-
11
07
0)
0%
0&
1'
#850
1=
12
14
0/
13
0.
1@
1:
08
16
1;
1>
0<
1A
15
1*
1+
0,
1-
11
07
1)
#855
04
02
10
0:
0/
0=
1.
0@
0;
0>
1<
0A
0+
1,
0-
01
0)
1%
#860
1=
14
12
17
15
00
1:
0/
13
0.
1@
18
06
1;
1>
0<
1A
0*
1+
0,
1-
01
1)
#865
02
04
0/
0=
1.
0@
10
0:
0>
1<
0A
05
1,
0-
11
07
0)
0%
1&
#870
02
1/
03
1.
0@
08
16
0;
1>
0<
1A
15
1*
0+
0,
1-
11
07
1)
#875
14
00
1:
1/
13
1.
1;
0>
1<
0A
1+
1,
0-
01
0)
1%
#880
04
02
17
15
10
0:
1/
0=
03
1.
0@
18
06
0;
1>
0<
1A
0*
0+
0,
1-
01
1)
#885
00
05
11
07
0)
0%
0&
0'
1(
#890
14
1/
13
1.
1:
08
16
1;
0>
1<
0A
15
1*
1+
1,
0-
11
07
1)
#895
04
02
10
0:
1/
0=
03
1.
0@
0;
1>
0<
1A
0+
0,
1-
01
0)
1%
#900
14
17
15
00
1:
1/
13
1.
18
06
1;
0>
1<
0A
0*
1+
1,
0-
01
1)
#905
02
04
1/
0=
03
1.
0@
10
0:
1>
0<
1A
05
0,
1-
11
07
0)
0%
1&
#910
0/
13
1.
08
16
0;
0>
1<
0A
15
1*
0+
1,
0-
11
07
1)
#915
1=
14
12
00
1:
0/
13
0.
1@
1;
1>
0<
1A
1+
0,
1-
01
0)
1%
#920
04
02
17
15
10
0:
0/
0=
1.
0@
18
06
0;
0>
1<
0A
0*
0+
1,
0-
01
1)
#925
12
0.
1@
00
1A
05
1-
11
07
0)
0%
0&
1'
#930
1=
02
14
0/
13
1.
0@
1:
08
16
1;
1>
0<
0A
15
1*
1+
0,
0-
11
07
1)
#935
04
12
10
0:
0/
0=
0.
1@
0;
0>
1<
1A
0+
1,
1-
01
0)
1%
#940
1=
14
02
17
15
00
1:
0/
13
1.
0@
18
06
1;
1>
0<
0A
0*
1+
0,
0-
01
1)
#945
12
04
0/
0=
0.
1@
10
0:
0>
1<
1A
05
1,
1-
11
07
0)
0%
1&
#950
02
1/
03
0.
0@
08
16
0;
1>
0<
0A
15
1*
0+
0,
0-
11
07
1)
#955
12
14
1@
00
1:
1/
13
0.
1;
0>
1<
1A
1+
1,
1-
01
0)
1%
#960
04
02
17
15
10
0:
1/
0=
03
0.
0@
18
06
0;
1>
0<
0A
0*
0+
0,
0-
01
1)
#965
0.
03
1/
0=
04
05
10
0:
07
08
1;
0)
0%
0&
0'
0(
0!
1"
#970
12
15
1@
17
10
14
1/
13
0.
18
0;
19
0>
1<
1A
1*
1+
1,
1-
01
1)
#975
02
04
1/
0=
03
0.
0@
1;
09
1>
0<
0A
05
0+
0,
0-
11
07
0)
1%
#980
00
12
1@
14
1/
13
0.
08
0;
19
0>
1<
1A
05
0*
1+
1,
1-
11
07
1)
#985
02
0/
1=
13
1.
0@
1>
0<
0A
0,
0-
01
0)
0%
1&
#990
1:
15
12
17
00
14
1/
0=
0.
1@
18
1;
09
0>
1<
1A
1*
0+
1,
1-
01
1)
#995
02
0/
1=
13
1.
0@
0:
0;
19
1>
0<
0A
05
1+
0,
0-
11
07
0)
1%
#1000
04
10
12
0/
0=
0.
1@
0:
08
1;
09
0>
1<
1A
05
0*
0+
1,
1-
11
07
1)
#1005
02
1.
0@
0A
0-
01
0)
0%
0&
1'
#1010
15
1=
12
17
10
14
0/
13
0.
1@
18
0;
19
1>
0<
1A
1*
1+
0,
1-
01
1)
#1015
02
04
0/
0=
1.
0@
1;
09
0>
1<
0A
05
0+
1,
0-
11
07
0)
1%
#1020
00
1=
12
14
0/
13
0.
1@
08
0;
19
1>
0<
1A
05
0*
1+
0,
1-
11
07
1)
#1025
02
1/
0=
1.
0@
0>
1<
0A
1,
0-
01
0)
0%
1&
#1030
1:
15
12
17
00
14
0/
1=
13
0.
1@
18
1;
09
1>
0<
1A
1*
0+
0,
1-
01
1)
#1035
02
1/
0=
1.
0@
0:
0;
19
0>
1<
0A
05
1+
1,
0-
11
07
0)
1%
#1040
04
10
02
1/
0=
03
1.
0@
0:
08
1;
09
1>
0<
1A
05
0*
0+
0,
1-
11
07
1)
#1045
01
0)
0%
0&
0'
1(
#1050
15
17
10
14
1/
13
1.
18
0;
19
0>
1<
0A
1*
1+
1,
0-
01
1)
#1055
02
04
1/
0=
03
1.
0@
1;
09
1>
0<
1A
05
0+
0,
1-
11
07
0)
1%
#1060
00
14
1/
13
1.
08
0;
19
0>
1<
0A
05
0*
1+
1,
0-
11
07
1)
#1065
12
0/
1=
13
0.
1@
1>
0<
1A
0,
1-
01
0)
0%
1&
#1070
1:
15
02
17
00
14
1/
0=
1.
0@
18
1;
09
0>
1<
0A
1*
0+
1,
0-
01
1)
#1075
12
0/
1=
13
0.
1@
0:
0;
19
1>
0<
1A
05
1+
0,
1-
11
07
0)
1%
#1080
04
10
02
0/
0=
1.
0@
0:
08
1;
09
0>
1<
0A
05
0*
0+
1,
0-
11
07
1)
#1085
12
0.
1@
1A
1-
01
0)
0%
0&
1'
#1090
15
1=
02
17
10
14
0/
13
1.
0@
18
0;
19
1>
0<
0A
1*
1+
0,
0-
01
1)
#1095
12
04
0/
0=
0.
1@
1;
09
0>
1<
1A
05
0+
1,
1-
11
07
0)
1%
#1100
00
1=
02
14
0/
13
1.
0@
08
0;
19
1>
0<
0A
05
0*
1+
0,
0-
11
07
1)
#1105
12
1/
0=
0.
1@
0>
1<
1A
1,
1-
01
0)
0%
1&
#1110
1:
15
02
17
00
14
0/
1=
13
1.
0@
18
1;
09
1>
0<
0A
1*
0+
0,
0-
01
1)
#1115
12
1/
0=
0.
1@
0:
0;
19
0>
1<
1A
05
1+
1,
1-
11
07
0)
1%
#1120
04
10
02
1/
0=
03
0.
0@
0:
08
1;
09
1>
0<
0A
05
0*
0+
0,
0-
11
07
1)
#1125
18
0)
0%
0&
0'
0(
1!
#1130
12
1@
14
1/
13
0.
08
16
0;
19
0>
1<
1A
15
1*
1+
1,
1-
11
07
1)
#1135
02
00
1:
14
0/
1=
13
1.
0@
1;
09
1>
0<
0A
0+
0,
0-
01
0)
1%
#1140
12
17
15
10
0:
1/
0=
0.
1@
18
06
0;
19
0>
1<
1A
0*
1+
1,
1-
01
1)
#1145
02
0/
1=
13
1.
0@
00
1>
0<
0A
05
0,
0-
11
07
0)
0%
1&
#1150
12
1/
0=
0.
1@
1:
08
16
1;
09
0>
1<
1A
15
1*
0+
1,
1-
11
07
1)
#1155
02
10
0:
0/
1=
13
1.
0@
0;
19
1>
0<
0A
1+
0,
0-
01
0)
1%
#1160
12
17
15
00
1:
14
1/
0=
0.
1@
18
06
1;
09
0>
1<
1A
0*
0+
1,
1-
01
1)
#1165
0/
02
04
1.
0@
10
0:
0A
05
0-
11
07
0)
0%
0&
1'
#1170
1=
12
14
0/
13
0.
1@
08
16
0;
19
1>
0<
1A
15
1*
1+
0,
1-
11
07
1)
#1175
02
00
1:
14
1/
0=
1.
0@
1;
09
0>
1<
0A
0+
1,
0-
01
0)
1%
#1180
12
17
15
10
0:
0/
1=
13
0.
1@
18
06
0;
19
1>
0<
1A
0*
1+
0,
1-
01
1)
#1185
02
1/
0=
1.
0@
00
0>
1<
0A
05
1,
0-
11
07
0)
0%
1&
#1190
12
0/
1=
13
0.
1@
1:
08
16
1;
09
1>
0<
1A
15
1*
0+
0,
1-
11
07
1)
#1195
02
10
0:
1/
0=
1.
0@
0;
19
0>
1<
0A
1+
1,
0-
01
0)
1%
#1200
12
17
15
00
1:
14
0/
1=
13
0.
1@
18
06
1;
09
1>
0<
1A
0*
0+
0,
1-
01
1)
#1205
02
1.
0@
03
1/
0=
04
10
0:
05
11
07
0)
0%
0&
0'
1(
#1210
14
1/
13
1.
08
16
0;
19
0>
1<
0A
15
1*
1+
1,
0-
11
07
1)
#1215
12
00
1:
14
0/
1=
13
0.
1@
1;
09
1>
0<
1A
0+
0,
1-
01
0)
1%
#1220
02
17
15
10
0:
1/
0=
1.
0@
18
06
0;
19
0>
1<
0A
0*
1+
1,
0-
01
1)
#1225
12
0/
1=
13
0.
1@
00
1>
0<
1A
05
0,
1-
11
07
0)
0%
1&
#1230
02
1/
0=
1.
0@
1:
08
16
1;
09
0>
1<
0A
15
1*
0+
1,
0-
11
07
1)
#1235
12
10
0:
0/
1=
13
0.
1@
0;
19
1>
0<
1A
1+
0,
1-
01
0)
1%
#1240
02
17
15
00
1:
14
1/
0=
1.
0@
18
06
1;
09
0>
1<
0A
0*
0+
1,
0-
01
1)
#1245
0/
12
04
0.
1@
10
0:
1A
05
1-
11
07
0)
0%
0&
1'
#1250
1=
02
14
0/
13
1.
0@
08
16
0;
19
1>
0<
0A
15
1*
1+
0,
0-
11
07
1)
#1255
12
00
1:
14
1/
0=
0.
1@
1;
09
0>
1<
1A
0+
1,
1-
01
0)
1%
#1260
02
17
15
10
0:
0/
1=
13
1.
0@
18
06
0;
19
1>
0<
0A
0*
1+
0,
0-
01
1)
#1265
12
1/
0=
0.
1@
00
0>
1<
1A
05
1,
1-
11
07
0)
0%
1&
#1270
02
0/
1=
13
1.
0@
1:
08
16
1;
09
1>
0<
0A
15
1*
0+
0,
0-
11
07
1)
#1275
12
10
0:
1/
0=
0.
1@
0;
19
0>
1<
1A
1+
1,
1-
01
0)
1%
#1280
02
17
15
00
1:
14
0/
1=
13
1.
0@
18
06
1;
09
1>
0<
0A
0*
0+
0,
0-
01
1)
#1285
04
03
02
05
00
0:
0/
0=
1.
0@
07
08
0;
0>
1A
0)
0%
0&
0'
0(
0!
0"
0#
1$
#1290
13
1=
14
1:
15
17
00
0/
1.
12
18
1;
1>
0A
1?
1*
1+
1,
1-
01
1)
#1295
03
04
0/
0=
1.
0@
02
0:
0;
0>
1A
0?
05
0+
0,
0-
11
07
0)
1%
#1300
03
10
0=
04
1/
0.
12
0:
08
1;
1>
0A
1?
05
0*
1+
1,
1-
11
07
1)
#1305
0/
1.
02
0>
1A
0?
0,
0-
01
0)
0%
1&
#1310
15
17
10
1/
0.
12
18
0;
1>
0A
1?
1*
0+
1,
1-
01
1)
#1315
0/
1.
02
1;
0>
1A
0?
05
1+
0,
0-
11
07
0)
1%
#1320
00
1/
0.
12
08
0;
1>
0A
1?
05
0*
0+
1,
1-
11
07
1)
#1325
1.
02
1A
0?
0-
01
0)
0%
0&
1'
#1330
14
1:
15
17
00
1/
0.
12
18
1;
0>
0A
1?
1*
1+
0,
1-
01
1)
#1335
0@
03
04
1/
0=
1.
02
0:
0;
1>
1A
0?
05
0+
1,
0-
11
07
0)
1%
#1340
10
04
0/
0.
12
0:
08
1;
0>
0A
1?
05
0*
1+
0,
1-
11
07
1)
#1345
1/
1.
02
1>
1A
0?
1,
0-
01
0)
0%
1&
#1350
15
17
10
0/
0.
12
18
0;
0>
0A
1?
1*
0+
0,
1-
01
1)
#1355
1/
1.
02
1;
1>
1A
0?
05
1+
1,
0-
11
07
0)
1%
#1360
00
0/
0.
12
08
0;
0>
0A
1?
05
0*
0+
0,
1-
11
07
1)
#1365
01
0)
0%
0&
0'
1(
#1370
1@
13
1=
14
1:
15
17
00
0/
0.
12
18
1;
1>
1A
0?
1*
1+
1,
0-
01
1)
